%!PS-Adobe-3.0 EPSF-3.0
%%DocumentNeededResources: font Helvetica
%%+ font Helvetica-Bold
%%+ font Helvetica-Oblique
%%+ font Helvetica-BoldOblique
%%+ font Symbol
%%Title: R Graphics Output
%%Creator: R Software
%%Pages: (atend)
%%BoundingBox: 0 0 397 425
%%EndComments
%%BeginProlog
/bp  { gs sRGB gs } def
% begin .ps.prolog
/gs  { gsave } bind def
/gr  { grestore } bind def
/ep  { showpage gr gr } bind def
/m   { moveto } bind def
/l  { rlineto } bind def
/np  { newpath } bind def
/cp  { closepath } bind def
/f   { fill } bind def
/o   { stroke } bind def
/c   { newpath 0 360 arc } bind def
/r   { 4 2 roll moveto 1 copy 3 -1 roll exch 0 exch rlineto 0 rlineto -1 mul 0 exch rlineto closepath } bind def
/p1  { stroke } bind def
/p2  { gsave bg fill grestore newpath } bind def
/p3  { gsave bg fill grestore stroke } bind def
/p6  { gsave bg eofill grestore newpath } bind def
/p7  { gsave bg eofill grestore stroke } bind def
/t   { 5 -2 roll moveto gsave rotate
       1 index stringwidth pop
       mul neg 0 rmoveto show grestore } bind def
/ta  { 4 -2 roll moveto gsave rotate show } bind def
/tb  { 2 -1 roll 0 rmoveto show } bind def
/cl  { grestore gsave newpath 3 index 3 index moveto 1 index
       4 -1 roll lineto  exch 1 index lineto lineto
       closepath clip newpath } bind def
/rgb { setrgbcolor } bind def
/s   { scalefont setfont } bind def
% end   .ps.prolog
/sRGB { [ /CIEBasedABC
          << /DecodeLMN
               [ { dup 0.03928 le
                        {12.92321 div}
                        {0.055 add 1.055 div 2.4 exp }
                     ifelse
                 } bind dup dup
               ]
             /MatrixLMN [0.412457 0.212673 0.019334
                         0.357576 0.715152 0.119192
                         0.180437 0.072175 0.950301]
             /WhitePoint [0.9505 1.0 1.0890]
           >>
         ] setcolorspace } bind def
/srgb { setcolor } bind def
%%IncludeResource: font Helvetica
/Helvetica findfont
dup length dict begin
  {1 index /FID ne {def} {pop pop} ifelse} forall
  /Encoding ISOLatin1Encoding def
  currentdict
  end
/Font1 exch definefont pop
%%IncludeResource: font Helvetica-Bold
/Helvetica-Bold findfont
dup length dict begin
  {1 index /FID ne {def} {pop pop} ifelse} forall
  /Encoding ISOLatin1Encoding def
  currentdict
  end
/Font2 exch definefont pop
%%IncludeResource: font Helvetica-Oblique
/Helvetica-Oblique findfont
dup length dict begin
  {1 index /FID ne {def} {pop pop} ifelse} forall
  /Encoding ISOLatin1Encoding def
  currentdict
  end
/Font3 exch definefont pop
%%IncludeResource: font Helvetica-BoldOblique
/Helvetica-BoldOblique findfont
dup length dict begin
  {1 index /FID ne {def} {pop pop} ifelse} forall
  /Encoding ISOLatin1Encoding def
  currentdict
  end
/Font4 exch definefont pop
%%IncludeResource: font Symbol
/Symbol findfont
dup length dict begin
  {1 index /FID ne {def} {pop pop} ifelse} forall
  currentdict
  end
/Font5 exch definefont pop
%%EndProlog
%%Page: 1 1
bp
0.00 0.00 396.85 425.20 cl
0.00 0.00 396.85 425.20 cl
0.00 0.00 396.85 425.20 cl
0.00 0.00 396.85 425.20 cl
0.00 0.00 396.85 425.20 cl
0.00 0.00 396.85 425.20 cl
0.00 0.00 396.85 425.20 cl
0.00 0.00 396.85 425.20 cl
0.00 0.00 396.85 425.20 cl
0.00 0.00 396.85 425.20 cl
0.00 0.00 396.85 425.20 cl
0.00 0.00 396.85 425.20 cl
/bg { 1 1 1 srgb } def
1 1 1 srgb
1.07 setlinewidth
[] 0 setdash
1 setlinecap
1 setlinejoin
10.00 setmiterlimit
0.00 0.00 396.85 425.20 r p3
0.00 0.00 396.85 425.20 cl
53.09 77.73 391.37 419.72 cl
/bg { 1 1 1 srgb } def
0.4980 0.4980 0.4980 srgb
1.07 setlinewidth
[] 0 setdash
1 setlinecap
1 setlinejoin
10.00 setmiterlimit
53.09 77.73 338.28 341.98 r p3
1 1 1 srgb
0.53 setlinewidth
[] 0 setdash
0 setlinecap
np
53.09 132.14 m
338.28 0 l
o
np
53.09 209.86 m
338.28 0 l
o
np
53.09 287.59 m
338.28 0 l
o
np
53.09 365.31 m
338.28 0 l
o
np
106.90 77.73 m
0 341.99 l
o
np
183.79 77.73 m
0 341.99 l
o
np
260.67 77.73 m
0 341.99 l
o
np
337.55 77.73 m
0 341.99 l
o
1.07 setlinewidth
[] 0 setdash
np
53.09 93.28 m
338.28 0 l
o
np
53.09 171.00 m
338.28 0 l
o
np
53.09 248.72 m
338.28 0 l
o
np
53.09 326.45 m
338.28 0 l
o
np
53.09 404.17 m
338.28 0 l
o
np
68.46 77.73 m
0 341.99 l
o
np
145.35 77.73 m
0 341.99 l
o
np
222.23 77.73 m
0 341.99 l
o
np
299.11 77.73 m
0 341.99 l
o
np
375.99 77.73 m
0 341.99 l
o
0.3294 0.6235 0.5765 srgb
0.71 setlinewidth
[] 0 setdash
1 setlinecap
np
64.91 93.28 m
7.11 0 l
o
np
68.46 89.72 m
0 7.11 l
o
64.91 89.72 7.11 7.11 r p1
np
65.22 294.12 m
7.11 0 l
o
np
68.77 290.56 m
0 7.11 l
o
65.22 290.56 7.11 7.11 r p1
np
65.52 360.96 m
7.11 0 l
o
np
69.08 357.40 m
0 7.11 l
o
65.52 357.40 7.11 7.11 r p1
np
65.83 387.38 m
7.11 0 l
o
np
69.39 383.83 m
0 7.11 l
o
65.83 383.83 7.11 7.11 r p1
np
66.14 396.71 m
7.11 0 l
o
np
69.69 393.16 m
0 7.11 l
o
66.14 393.16 7.11 7.11 r p1
np
66.45 401.06 m
7.11 0 l
o
np
70.00 397.51 m
0 7.11 l
o
66.45 397.51 7.11 7.11 r p1
np
66.75 401.37 m
7.11 0 l
o
np
70.31 397.82 m
0 7.11 l
o
66.75 397.82 7.11 7.11 r p1
np
67.06 402.00 m
7.11 0 l
o
np
70.62 398.44 m
0 7.11 l
o
67.06 398.44 7.11 7.11 r p1
np
67.37 401.37 m
7.11 0 l
o
np
70.92 397.82 m
0 7.11 l
o
67.37 397.82 7.11 7.11 r p1
np
67.68 400.75 m
7.11 0 l
o
np
71.23 397.20 m
0 7.11 l
o
67.68 397.20 7.11 7.11 r p1
np
67.98 401.37 m
7.11 0 l
o
np
71.54 397.82 m
0 7.11 l
o
67.98 397.82 7.11 7.11 r p1
np
67.98 401.06 m
7.11 0 l
o
np
71.54 397.51 m
0 7.11 l
o
67.98 397.51 7.11 7.11 r p1
np
71.06 397.64 m
7.11 0 l
o
np
74.61 394.09 m
0 7.11 l
o
71.06 394.09 7.11 7.11 r p1
np
74.13 395.16 m
7.11 0 l
o
np
77.69 391.60 m
0 7.11 l
o
74.13 391.60 7.11 7.11 r p1
np
77.21 391.74 m
7.11 0 l
o
np
80.76 388.18 m
0 7.11 l
o
77.21 388.18 7.11 7.11 r p1
np
80.28 388.32 m
7.12 0 l
o
np
83.84 384.76 m
0 7.11 l
o
80.28 384.76 7.11 7.11 r p1
np
83.36 384.90 m
7.11 0 l
o
np
86.92 381.34 m
0 7.11 l
o
83.36 381.34 7.11 7.11 r p1
np
86.44 382.72 m
7.11 0 l
o
np
89.99 379.17 m
0 7.11 l
o
86.44 379.17 7.11 7.11 r p1
np
89.51 379.30 m
7.11 0 l
o
np
93.07 375.75 m
0 7.11 l
o
89.51 375.75 7.11 7.11 r p1
np
92.59 376.19 m
7.11 0 l
o
np
96.14 372.64 m
0 7.11 l
o
92.59 372.64 7.11 7.11 r p1
np
95.66 373.08 m
7.11 0 l
o
np
99.22 369.53 m
0 7.11 l
o
95.66 369.53 7.11 7.11 r p1
np
98.74 370.29 m
7.11 0 l
o
np
102.29 366.73 m
0 7.11 l
o
98.74 366.73 7.11 7.11 r p1
np
101.81 367.18 m
7.11 0 l
o
np
105.37 363.62 m
0 7.11 l
o
101.81 363.62 7.11 7.11 r p1
np
104.89 363.76 m
7.11 0 l
o
np
108.44 360.20 m
0 7.11 l
o
104.89 360.20 7.11 7.11 r p1
np
107.96 361.27 m
7.11 0 l
o
np
111.52 357.71 m
0 7.11 l
o
107.96 357.71 7.11 7.11 r p1
np
111.04 357.54 m
7.11 0 l
o
np
114.59 353.98 m
0 7.11 l
o
111.04 353.98 7.11 7.11 r p1
np
114.11 355.05 m
7.11 0 l
o
np
117.67 351.50 m
0 7.11 l
o
114.11 351.50 7.11 7.11 r p1
np
117.19 351.32 m
7.11 0 l
o
np
120.74 347.77 m
0 7.11 l
o
117.19 347.77 7.11 7.11 r p1
np
120.26 348.52 m
7.11 0 l
o
np
123.82 344.97 m
0 7.11 l
o
120.26 344.97 7.11 7.11 r p1
np
123.34 345.10 m
7.11 0 l
o
np
126.89 341.55 m
0 7.11 l
o
123.34 341.55 7.11 7.11 r p1
np
126.41 341.68 m
7.11 0 l
o
np
129.97 338.13 m
0 7.11 l
o
126.41 338.13 7.11 7.11 r p1
np
129.49 339.20 m
7.11 0 l
o
np
133.04 335.64 m
0 7.11 l
o
129.49 335.64 7.11 7.11 r p1
np
132.56 336.09 m
7.12 0 l
o
np
136.12 332.53 m
0 7.11 l
o
132.56 332.53 7.11 7.11 r p1
np
135.64 332.67 m
7.11 0 l
o
np
139.20 329.11 m
0 7.11 l
o
135.64 329.11 7.11 7.11 r p1
np
138.72 329.56 m
7.11 0 l
o
np
142.27 326.00 m
0 7.11 l
o
138.72 326.00 7.11 7.11 r p1
np
141.79 326.76 m
7.11 0 l
o
np
145.35 323.20 m
0 7.11 l
o
141.79 323.20 7.11 7.11 r p1
np
144.87 323.34 m
7.11 0 l
o
np
148.42 319.78 m
0 7.12 l
o
144.87 319.78 7.11 7.11 r p1
np
147.94 320.85 m
7.11 0 l
o
np
151.50 317.30 m
0 7.11 l
o
147.94 317.30 7.11 7.11 r p1
np
151.02 317.43 m
7.11 0 l
o
np
154.57 313.88 m
0 7.11 l
o
151.02 313.88 7.11 7.11 r p1
np
154.09 313.70 m
7.11 0 l
o
np
157.65 310.15 m
0 7.11 l
o
154.09 310.15 7.11 7.11 r p1
np
157.17 310.90 m
7.11 0 l
o
np
160.72 307.35 m
0 7.11 l
o
157.17 307.35 7.11 7.11 r p1
np
160.24 307.80 m
7.11 0 l
o
np
163.80 304.24 m
0 7.11 l
o
160.24 304.24 7.11 7.11 r p1
np
163.32 305.00 m
7.11 0 l
o
np
166.87 301.44 m
0 7.11 l
o
163.32 301.44 7.11 7.11 r p1
np
166.39 301.58 m
7.11 0 l
o
np
169.95 298.02 m
0 7.11 l
o
166.39 298.02 7.11 7.11 r p1
np
169.47 298.16 m
7.11 0 l
o
np
173.02 294.60 m
0 7.11 l
o
169.47 294.60 7.11 7.11 r p1
np
172.54 295.67 m
7.11 0 l
o
np
176.10 292.11 m
0 7.12 l
o
172.54 292.11 7.11 7.11 r p1
np
175.62 292.56 m
7.11 0 l
o
np
179.17 289.01 m
0 7.11 l
o
175.62 289.01 7.11 7.11 r p1
np
178.69 289.45 m
7.12 0 l
o
np
182.25 285.90 m
0 7.11 l
o
178.69 285.90 7.11 7.11 r p1
np
181.77 286.03 m
7.11 0 l
o
np
185.33 282.48 m
0 7.11 l
o
181.77 282.48 7.11 7.11 r p1
np
184.85 282.92 m
7.11 0 l
o
np
188.40 279.37 m
0 7.11 l
o
184.85 279.37 7.11 7.11 r p1
np
187.92 279.81 m
7.11 0 l
o
np
191.48 276.26 m
0 7.11 l
o
187.92 276.26 7.11 7.11 r p1
np
191.00 276.71 m
7.11 0 l
o
np
194.55 273.15 m
0 7.11 l
o
191.00 273.15 7.11 7.11 r p1
np
194.07 273.60 m
7.11 0 l
o
np
197.63 270.04 m
0 7.11 l
o
194.07 270.04 7.11 7.11 r p1
np
197.15 270.18 m
7.11 0 l
o
np
200.70 266.62 m
0 7.11 l
o
197.15 266.62 7.11 7.11 r p1
np
200.22 267.38 m
7.11 0 l
o
np
203.78 263.82 m
0 7.11 l
o
200.22 263.82 7.11 7.11 r p1
np
203.30 264.58 m
7.11 0 l
o
np
206.85 261.03 m
0 7.11 l
o
203.30 261.03 7.11 7.11 r p1
np
206.37 261.78 m
7.11 0 l
o
np
209.93 258.23 m
0 7.11 l
o
206.37 258.23 7.11 7.11 r p1
np
209.45 258.36 m
7.11 0 l
o
np
213.00 254.81 m
0 7.11 l
o
209.45 254.81 7.11 7.11 r p1
np
212.52 255.25 m
7.11 0 l
o
np
216.08 251.70 m
0 7.11 l
o
212.52 251.70 7.11 7.11 r p1
np
215.60 252.14 m
7.11 0 l
o
np
219.15 248.59 m
0 7.11 l
o
215.60 248.59 7.11 7.11 r p1
np
218.67 249.35 m
7.11 0 l
o
np
222.23 245.79 m
0 7.11 l
o
218.67 245.79 7.11 7.11 r p1
np
221.75 245.93 m
7.11 0 l
o
np
225.30 242.37 m
0 7.11 l
o
221.75 242.37 7.11 7.11 r p1
np
224.82 242.51 m
7.11 0 l
o
np
228.38 238.95 m
0 7.11 l
o
224.82 238.95 7.11 7.11 r p1
np
227.90 239.71 m
7.11 0 l
o
np
231.45 236.15 m
0 7.11 l
o
227.90 236.15 7.11 7.11 r p1
np
230.97 236.91 m
7.12 0 l
o
np
234.53 233.36 m
0 7.11 l
o
230.97 233.36 7.11 7.11 r p1
np
234.05 233.18 m
7.11 0 l
o
np
237.61 229.62 m
0 7.12 l
o
234.05 229.62 7.11 7.11 r p1
np
237.13 230.69 m
7.11 0 l
o
np
240.68 227.14 m
0 7.11 l
o
237.13 227.14 7.11 7.11 r p1
np
240.20 226.96 m
7.11 0 l
o
np
243.76 223.41 m
0 7.11 l
o
240.20 223.41 7.11 7.11 r p1
np
243.28 224.16 m
7.11 0 l
o
np
246.83 220.61 m
0 7.11 l
o
243.28 220.61 7.11 7.11 r p1
np
246.35 220.74 m
7.11 0 l
o
np
249.91 217.19 m
0 7.11 l
o
246.35 217.19 7.11 7.11 r p1
np
249.43 217.64 m
7.11 0 l
o
np
252.98 214.08 m
0 7.11 l
o
249.43 214.08 7.11 7.11 r p1
np
252.50 214.84 m
7.11 0 l
o
np
256.06 211.28 m
0 7.11 l
o
252.50 211.28 7.11 7.11 r p1
np
255.58 211.73 m
7.11 0 l
o
np
259.13 208.17 m
0 7.11 l
o
255.58 208.17 7.11 7.11 r p1
np
258.65 208.31 m
7.11 0 l
o
np
262.21 204.75 m
0 7.11 l
o
258.65 204.75 7.11 7.11 r p1
np
261.73 205.20 m
7.11 0 l
o
np
265.28 201.64 m
0 7.11 l
o
261.73 201.64 7.11 7.11 r p1
np
264.80 202.40 m
7.11 0 l
o
np
268.36 198.85 m
0 7.11 l
o
264.80 198.85 7.11 7.11 r p1
np
267.88 199.60 m
7.11 0 l
o
np
271.43 196.05 m
0 7.11 l
o
267.88 196.05 7.11 7.11 r p1
np
270.95 195.87 m
7.11 0 l
o
np
274.51 192.32 m
0 7.11 l
o
270.95 192.32 7.11 7.11 r p1
np
274.03 193.07 m
7.11 0 l
o
np
277.58 189.52 m
0 7.11 l
o
274.03 189.52 7.11 7.11 r p1
np
277.10 189.97 m
7.11 0 l
o
np
280.66 186.41 m
0 7.11 l
o
277.10 186.41 7.11 7.11 r p1
np
280.18 186.86 m
7.11 0 l
o
np
283.74 183.30 m
0 7.11 l
o
280.18 183.30 7.11 7.11 r p1
np
283.26 183.75 m
7.11 0 l
o
np
286.81 180.19 m
0 7.11 l
o
283.26 180.19 7.11 7.11 r p1
np
286.33 180.64 m
7.11 0 l
o
np
289.89 177.08 m
0 7.11 l
o
286.33 177.08 7.11 7.11 r p1
np
289.41 177.22 m
7.11 0 l
o
np
292.96 173.66 m
0 7.11 l
o
289.41 173.66 7.11 7.11 r p1
np
292.48 174.42 m
7.11 0 l
o
np
296.04 170.87 m
0 7.11 l
o
292.48 170.87 7.11 7.11 r p1
np
295.56 171.00 m
7.11 0 l
o
np
299.11 167.45 m
0 7.11 l
o
295.56 167.45 7.11 7.11 r p1
np
298.63 167.89 m
7.11 0 l
o
np
302.19 164.34 m
0 7.11 l
o
298.63 164.34 7.11 7.11 r p1
np
301.71 165.09 m
7.11 0 l
o
np
305.26 161.54 m
0 7.11 l
o
301.71 161.54 7.11 7.11 r p1
np
304.78 161.67 m
7.11 0 l
o
np
308.34 158.12 m
0 7.11 l
o
304.78 158.12 7.11 7.11 r p1
np
307.86 158.88 m
7.11 0 l
o
np
311.41 155.32 m
0 7.11 l
o
307.86 155.32 7.11 7.11 r p1
np
310.93 155.46 m
7.11 0 l
o
np
314.49 151.90 m
0 7.11 l
o
310.93 151.90 7.11 7.11 r p1
np
314.01 152.66 m
7.11 0 l
o
np
317.56 149.10 m
0 7.11 l
o
314.01 149.10 7.11 7.11 r p1
np
317.08 149.24 m
7.11 0 l
o
np
320.64 145.68 m
0 7.11 l
o
317.08 145.68 7.11 7.11 r p1
np
320.16 145.82 m
7.11 0 l
o
np
323.71 142.26 m
0 7.11 l
o
320.16 142.26 7.11 7.11 r p1
np
323.23 143.33 m
7.11 0 l
o
np
326.79 139.78 m
0 7.11 l
o
323.23 139.78 7.11 7.11 r p1
np
326.31 139.91 m
7.11 0 l
o
np
329.86 136.36 m
0 7.11 l
o
326.31 136.36 7.11 7.11 r p1
np
329.38 136.80 m
7.12 0 l
o
np
332.94 133.25 m
0 7.11 l
o
329.38 133.25 7.11 7.11 r p1
np
332.46 134.00 m
7.11 0 l
o
np
336.02 130.45 m
0 7.11 l
o
332.46 130.45 7.11 7.11 r p1
np
335.54 130.58 m
7.11 0 l
o
np
339.09 127.03 m
0 7.11 l
o
335.54 127.03 7.11 7.11 r p1
np
338.61 127.79 m
7.11 0 l
o
np
342.17 124.23 m
0 7.11 l
o
338.61 124.23 7.11 7.11 r p1
np
341.69 124.37 m
7.11 0 l
o
np
345.24 120.81 m
0 7.11 l
o
341.69 120.81 7.11 7.11 r p1
np
344.76 121.26 m
7.11 0 l
o
np
348.32 117.70 m
0 7.11 l
o
344.76 117.70 7.11 7.11 r p1
np
347.84 118.46 m
7.11 0 l
o
np
351.39 114.90 m
0 7.12 l
o
347.84 114.90 7.11 7.11 r p1
np
350.91 115.35 m
7.11 0 l
o
np
354.47 111.80 m
0 7.11 l
o
350.91 111.80 7.11 7.11 r p1
np
353.99 112.24 m
7.11 0 l
o
np
357.54 108.69 m
0 7.11 l
o
353.99 108.69 7.11 7.11 r p1
np
357.06 109.13 m
7.11 0 l
o
np
360.62 105.58 m
0 7.11 l
o
357.06 105.58 7.11 7.11 r p1
np
360.14 106.02 m
7.11 0 l
o
np
363.69 102.47 m
0 7.11 l
o
360.14 102.47 7.11 7.11 r p1
np
363.21 103.23 m
7.11 0 l
o
np
366.77 99.67 m
0 7.11 l
o
363.21 99.67 7.11 7.11 r p1
np
366.29 99.81 m
7.11 0 l
o
np
369.84 96.25 m
0 7.11 l
o
366.29 96.25 7.11 7.11 r p1
np
369.36 96.70 m
7.11 0 l
o
np
372.92 93.14 m
0 7.11 l
o
369.36 93.14 7.11 7.11 r p1
np
372.44 93.59 m
7.11 0 l
o
np
375.99 90.03 m
0 7.11 l
o
372.44 90.03 7.11 7.11 r p1
np
64.91 93.28 m
7.11 0 l
o
np
68.46 89.72 m
0 7.11 l
o
64.91 89.72 7.11 7.11 r p1
np
65.22 283.55 m
7.11 0 l
o
np
68.77 279.99 m
0 7.11 l
o
65.22 279.99 7.11 7.11 r p1
np
65.52 368.42 m
7.11 0 l
o
np
69.08 364.86 m
0 7.11 l
o
65.52 364.86 7.11 7.11 r p1
np
65.83 391.74 m
7.11 0 l
o
np
69.39 388.18 m
0 7.11 l
o
65.83 388.18 7.11 7.11 r p1
np
66.14 398.27 m
7.11 0 l
o
np
69.69 394.71 m
0 7.11 l
o
66.14 394.71 7.11 7.11 r p1
np
66.45 399.82 m
7.11 0 l
o
np
70.00 396.26 m
0 7.12 l
o
66.45 396.26 7.11 7.11 r p1
np
66.75 402.00 m
7.11 0 l
o
np
70.31 398.44 m
0 7.11 l
o
66.75 398.44 7.11 7.11 r p1
np
67.06 401.06 m
7.11 0 l
o
np
70.62 397.51 m
0 7.11 l
o
67.06 397.51 7.11 7.11 r p1
np
67.37 401.37 m
7.11 0 l
o
np
70.92 397.82 m
0 7.11 l
o
67.37 397.82 7.11 7.11 r p1
np
67.68 401.06 m
7.11 0 l
o
np
71.23 397.51 m
0 7.11 l
o
67.68 397.51 7.11 7.11 r p1
np
67.98 401.06 m
7.11 0 l
o
np
71.54 397.51 m
0 7.11 l
o
67.98 397.51 7.11 7.11 r p1
np
67.98 401.06 m
7.11 0 l
o
np
71.54 397.51 m
0 7.11 l
o
67.98 397.51 7.11 7.11 r p1
np
71.06 397.95 m
7.11 0 l
o
np
74.61 394.40 m
0 7.11 l
o
71.06 394.40 7.11 7.11 r p1
np
74.13 394.85 m
7.11 0 l
o
np
77.69 391.29 m
0 7.11 l
o
74.13 391.29 7.11 7.11 r p1
np
77.21 392.05 m
7.11 0 l
o
np
80.76 388.49 m
0 7.11 l
o
77.21 388.49 7.11 7.11 r p1
np
80.28 388.94 m
7.12 0 l
o
np
83.84 385.38 m
0 7.11 l
o
80.28 385.38 7.11 7.11 r p1
np
83.36 385.83 m
7.11 0 l
o
np
86.92 382.27 m
0 7.12 l
o
83.36 382.27 7.11 7.11 r p1
np
86.44 382.72 m
7.11 0 l
o
np
89.99 379.17 m
0 7.11 l
o
86.44 379.17 7.11 7.11 r p1
np
89.51 379.61 m
7.11 0 l
o
np
93.07 376.06 m
0 7.11 l
o
89.51 376.06 7.11 7.11 r p1
np
92.59 375.88 m
7.11 0 l
o
np
96.14 372.33 m
0 7.11 l
o
92.59 372.33 7.11 7.11 r p1
np
95.66 373.70 m
7.11 0 l
o
np
99.22 370.15 m
0 7.11 l
o
95.66 370.15 7.11 7.11 r p1
np
98.74 370.29 m
7.11 0 l
o
np
102.29 366.73 m
0 7.11 l
o
98.74 366.73 7.11 7.11 r p1
np
101.81 366.87 m
7.11 0 l
o
np
105.37 363.31 m
0 7.11 l
o
101.81 363.31 7.11 7.11 r p1
np
104.89 363.45 m
7.11 0 l
o
np
108.44 359.89 m
0 7.11 l
o
104.89 359.89 7.11 7.11 r p1
np
107.96 360.96 m
7.11 0 l
o
np
111.52 357.40 m
0 7.11 l
o
107.96 357.40 7.11 7.11 r p1
np
111.04 357.54 m
7.11 0 l
o
np
114.59 353.98 m
0 7.11 l
o
111.04 353.98 7.11 7.11 r p1
np
114.11 354.43 m
7.11 0 l
o
np
117.67 350.87 m
0 7.11 l
o
114.11 350.87 7.11 7.11 r p1
np
117.19 351.01 m
7.11 0 l
o
np
120.74 347.45 m
0 7.11 l
o
117.19 347.45 7.11 7.11 r p1
np
120.26 348.52 m
7.11 0 l
o
np
123.82 344.97 m
0 7.11 l
o
120.26 344.97 7.11 7.11 r p1
np
123.34 345.72 m
7.11 0 l
o
np
126.89 342.17 m
0 7.11 l
o
123.34 342.17 7.11 7.11 r p1
np
126.41 341.99 m
7.11 0 l
o
np
129.97 338.44 m
0 7.11 l
o
126.41 338.44 7.11 7.11 r p1
np
129.49 339.20 m
7.11 0 l
o
np
133.04 335.64 m
0 7.11 l
o
129.49 335.64 7.11 7.11 r p1
np
132.56 335.78 m
7.12 0 l
o
np
136.12 332.22 m
0 7.11 l
o
132.56 332.22 7.11 7.11 r p1
np
135.64 332.67 m
7.11 0 l
o
np
139.20 329.11 m
0 7.11 l
o
135.64 329.11 7.11 7.11 r p1
np
138.72 329.56 m
7.11 0 l
o
np
142.27 326.00 m
0 7.11 l
o
138.72 326.00 7.11 7.11 r p1
np
141.79 326.45 m
7.11 0 l
o
np
145.35 322.89 m
0 7.11 l
o
141.79 322.89 7.11 7.11 r p1
np
144.87 323.34 m
7.11 0 l
o
np
148.42 319.78 m
0 7.12 l
o
144.87 319.78 7.11 7.11 r p1
np
147.94 320.85 m
7.11 0 l
o
np
151.50 317.30 m
0 7.11 l
o
147.94 317.30 7.11 7.11 r p1
np
151.02 317.12 m
7.11 0 l
o
np
154.57 313.57 m
0 7.11 l
o
151.02 313.57 7.11 7.11 r p1
np
154.09 313.70 m
7.11 0 l
o
np
157.65 310.15 m
0 7.11 l
o
154.09 310.15 7.11 7.11 r p1
np
157.17 310.90 m
7.11 0 l
o
np
160.72 307.35 m
0 7.11 l
o
157.17 307.35 7.11 7.11 r p1
np
160.24 307.80 m
7.11 0 l
o
np
163.80 304.24 m
0 7.11 l
o
160.24 304.24 7.11 7.11 r p1
np
163.32 304.69 m
7.11 0 l
o
np
166.87 301.13 m
0 7.11 l
o
163.32 301.13 7.11 7.11 r p1
np
166.39 301.58 m
7.11 0 l
o
np
169.95 298.02 m
0 7.11 l
o
166.39 298.02 7.11 7.11 r p1
np
169.47 298.47 m
7.11 0 l
o
np
173.02 294.91 m
0 7.11 l
o
169.47 294.91 7.11 7.11 r p1
np
172.54 295.67 m
7.11 0 l
o
np
176.10 292.11 m
0 7.12 l
o
172.54 292.11 7.11 7.11 r p1
np
175.62 292.25 m
7.11 0 l
o
np
179.17 288.70 m
0 7.11 l
o
175.62 288.70 7.11 7.11 r p1
np
178.69 288.52 m
7.12 0 l
o
np
182.25 284.96 m
0 7.11 l
o
178.69 284.96 7.11 7.11 r p1
np
181.77 286.03 m
7.11 0 l
o
np
185.33 282.48 m
0 7.11 l
o
181.77 282.48 7.11 7.11 r p1
np
184.85 282.92 m
7.11 0 l
o
np
188.40 279.37 m
0 7.11 l
o
184.85 279.37 7.11 7.11 r p1
np
187.92 279.81 m
7.11 0 l
o
np
191.48 276.26 m
0 7.11 l
o
187.92 276.26 7.11 7.11 r p1
np
191.00 277.02 m
7.11 0 l
o
np
194.55 273.46 m
0 7.11 l
o
191.00 273.46 7.11 7.11 r p1
np
194.07 273.29 m
7.11 0 l
o
np
197.63 269.73 m
0 7.11 l
o
194.07 269.73 7.11 7.11 r p1
np
197.15 270.49 m
7.11 0 l
o
np
200.70 266.93 m
0 7.11 l
o
197.15 266.93 7.11 7.11 r p1
np
200.22 267.07 m
7.11 0 l
o
np
203.78 263.51 m
0 7.11 l
o
200.22 263.51 7.11 7.11 r p1
np
203.30 263.96 m
7.11 0 l
o
np
206.85 260.40 m
0 7.11 l
o
203.30 260.40 7.11 7.11 r p1
np
206.37 260.85 m
7.11 0 l
o
np
209.93 257.29 m
0 7.12 l
o
206.37 257.29 7.11 7.11 r p1
np
209.45 257.74 m
7.11 0 l
o
np
213.00 254.19 m
0 7.11 l
o
209.45 254.19 7.11 7.11 r p1
np
212.52 255.25 m
7.11 0 l
o
np
216.08 251.70 m
0 7.11 l
o
212.52 251.70 7.11 7.11 r p1
np
215.60 251.83 m
7.11 0 l
o
np
219.15 248.28 m
0 7.11 l
o
215.60 248.28 7.11 7.11 r p1
np
218.67 248.41 m
7.11 0 l
o
np
222.23 244.86 m
0 7.11 l
o
218.67 244.86 7.11 7.11 r p1
np
221.75 245.93 m
7.11 0 l
o
np
225.30 242.37 m
0 7.11 l
o
221.75 242.37 7.11 7.11 r p1
np
224.82 242.82 m
7.11 0 l
o
np
228.38 239.26 m
0 7.11 l
o
224.82 239.26 7.11 7.11 r p1
np
227.90 239.09 m
7.11 0 l
o
np
231.45 235.53 m
0 7.11 l
o
227.90 235.53 7.11 7.11 r p1
np
230.97 236.60 m
7.12 0 l
o
np
234.53 233.04 m
0 7.12 l
o
230.97 233.04 7.11 7.11 r p1
np
234.05 232.56 m
7.11 0 l
o
np
237.61 229.00 m
0 7.11 l
o
234.05 229.00 7.11 7.11 r p1
np
237.13 230.07 m
7.11 0 l
o
np
240.68 226.52 m
0 7.11 l
o
237.13 226.52 7.11 7.11 r p1
np
240.20 226.96 m
7.11 0 l
o
np
243.76 223.41 m
0 7.11 l
o
240.20 223.41 7.11 7.11 r p1
np
243.28 223.85 m
7.11 0 l
o
np
246.83 220.30 m
0 7.11 l
o
243.28 220.30 7.11 7.11 r p1
np
246.35 221.37 m
7.11 0 l
o
np
249.91 217.81 m
0 7.11 l
o
246.35 217.81 7.11 7.11 r p1
np
249.43 217.64 m
7.11 0 l
o
np
252.98 214.08 m
0 7.11 l
o
249.43 214.08 7.11 7.11 r p1
np
252.50 214.84 m
7.11 0 l
o
np
256.06 211.28 m
0 7.11 l
o
252.50 211.28 7.11 7.11 r p1
np
255.58 211.42 m
7.11 0 l
o
np
259.13 207.86 m
0 7.11 l
o
255.58 207.86 7.11 7.11 r p1
np
258.65 208.62 m
7.11 0 l
o
np
262.21 205.06 m
0 7.11 l
o
258.65 205.06 7.11 7.11 r p1
np
261.73 205.20 m
7.11 0 l
o
np
265.28 201.64 m
0 7.11 l
o
261.73 201.64 7.11 7.11 r p1
np
264.80 202.40 m
7.11 0 l
o
np
268.36 198.85 m
0 7.11 l
o
264.80 198.85 7.11 7.11 r p1
np
267.88 198.98 m
7.11 0 l
o
np
271.43 195.43 m
0 7.11 l
o
267.88 195.43 7.11 7.11 r p1
np
270.95 195.56 m
7.11 0 l
o
np
274.51 192.01 m
0 7.11 l
o
270.95 192.01 7.11 7.11 r p1
np
274.03 192.76 m
7.11 0 l
o
np
277.58 189.21 m
0 7.11 l
o
274.03 189.21 7.11 7.11 r p1
np
277.10 189.97 m
7.11 0 l
o
np
280.66 186.41 m
0 7.11 l
o
277.10 186.41 7.11 7.11 r p1
np
280.18 186.86 m
7.11 0 l
o
np
283.74 183.30 m
0 7.11 l
o
280.18 183.30 7.11 7.11 r p1
np
283.26 184.06 m
7.11 0 l
o
np
286.81 180.50 m
0 7.11 l
o
283.26 180.50 7.11 7.11 r p1
np
286.33 181.26 m
7.11 0 l
o
np
289.89 177.71 m
0 7.11 l
o
286.33 177.71 7.11 7.11 r p1
np
289.41 177.53 m
7.11 0 l
o
np
292.96 173.97 m
0 7.12 l
o
289.41 173.97 7.11 7.11 r p1
np
292.48 174.42 m
7.11 0 l
o
np
296.04 170.87 m
0 7.11 l
o
292.48 170.87 7.11 7.11 r p1
np
295.56 171.00 m
7.11 0 l
o
np
299.11 167.45 m
0 7.11 l
o
295.56 167.45 7.11 7.11 r p1
np
298.63 167.89 m
7.11 0 l
o
np
302.19 164.34 m
0 7.11 l
o
298.63 164.34 7.11 7.11 r p1
np
301.71 164.78 m
7.11 0 l
o
np
305.26 161.23 m
0 7.11 l
o
301.71 161.23 7.11 7.11 r p1
np
304.78 161.99 m
7.11 0 l
o
np
308.34 158.43 m
0 7.11 l
o
304.78 158.43 7.11 7.11 r p1
np
307.86 158.88 m
7.11 0 l
o
np
311.41 155.32 m
0 7.11 l
o
307.86 155.32 7.11 7.11 r p1
np
310.93 155.77 m
7.11 0 l
o
np
314.49 152.21 m
0 7.11 l
o
310.93 152.21 7.11 7.11 r p1
np
314.01 152.66 m
7.11 0 l
o
np
317.56 149.10 m
0 7.11 l
o
314.01 149.10 7.11 7.11 r p1
np
317.08 149.55 m
7.11 0 l
o
np
320.64 145.99 m
0 7.11 l
o
317.08 145.99 7.11 7.11 r p1
np
320.16 146.75 m
7.11 0 l
o
np
323.71 143.20 m
0 7.11 l
o
320.16 143.20 7.11 7.11 r p1
np
323.23 143.33 m
7.11 0 l
o
np
326.79 139.78 m
0 7.11 l
o
323.23 139.78 7.11 7.11 r p1
np
326.31 140.22 m
7.11 0 l
o
np
329.86 136.67 m
0 7.11 l
o
326.31 136.67 7.11 7.11 r p1
np
329.38 136.80 m
7.12 0 l
o
np
332.94 133.25 m
0 7.11 l
o
329.38 133.25 7.11 7.11 r p1
np
332.46 134.00 m
7.11 0 l
o
np
336.02 130.45 m
0 7.11 l
o
332.46 130.45 7.11 7.11 r p1
np
335.54 130.90 m
7.11 0 l
o
np
339.09 127.34 m
0 7.11 l
o
335.54 127.34 7.11 7.11 r p1
np
338.61 127.48 m
7.11 0 l
o
np
342.17 123.92 m
0 7.11 l
o
338.61 123.92 7.11 7.11 r p1
np
341.69 124.68 m
7.11 0 l
o
np
345.24 121.12 m
0 7.11 l
o
341.69 121.12 7.11 7.11 r p1
np
344.76 121.57 m
7.11 0 l
o
np
348.32 118.01 m
0 7.11 l
o
344.76 118.01 7.11 7.11 r p1
np
347.84 118.15 m
7.11 0 l
o
np
351.39 114.59 m
0 7.11 l
o
347.84 114.59 7.11 7.11 r p1
np
350.91 115.35 m
7.11 0 l
o
np
354.47 111.80 m
0 7.11 l
o
350.91 111.80 7.11 7.11 r p1
np
353.99 112.24 m
7.11 0 l
o
np
357.54 108.69 m
0 7.11 l
o
353.99 108.69 7.11 7.11 r p1
np
357.06 109.13 m
7.11 0 l
o
np
360.62 105.58 m
0 7.11 l
o
357.06 105.58 7.11 7.11 r p1
np
360.14 106.02 m
7.11 0 l
o
np
363.69 102.47 m
0 7.11 l
o
360.14 102.47 7.11 7.11 r p1
np
363.21 102.92 m
7.11 0 l
o
np
366.77 99.36 m
0 7.11 l
o
363.21 99.36 7.11 7.11 r p1
np
366.29 99.81 m
7.11 0 l
o
np
369.84 96.25 m
0 7.11 l
o
366.29 96.25 7.11 7.11 r p1
np
369.36 96.70 m
7.11 0 l
o
np
372.92 93.14 m
0 7.11 l
o
369.36 93.14 7.11 7.11 r p1
np
372.44 93.59 m
7.11 0 l
o
np
375.99 90.03 m
0 7.11 l
o
372.44 90.03 7.11 7.11 r p1
0.00 0.00 396.85 425.20 cl
0.00 0.00 396.85 425.20 cl
0.00 0.00 396.85 425.20 cl
0.00 0.00 396.85 425.20 cl
0.00 0.00 396.85 425.20 cl
0.00 0.00 396.85 425.20 cl
0.00 0.00 396.85 425.20 cl
0.00 0.00 396.85 425.20 cl
0.00 0.00 396.85 425.20 cl
0.00 0.00 396.85 425.20 cl
0.00 0.00 396.85 425.20 cl
0.00 0.00 396.85 425.20 cl
0.00 0.00 396.85 425.20 cl
0.8000 0.8000 0.8000 srgb
2.13 setlinewidth
[] 0 setdash
0 setlinecap
1 setlinejoin
10.00 setmiterlimit
np
53.09 77.73 m
0 341.99 l
o
0.00 0.00 396.85 425.20 cl
0.00 0.00 396.85 425.20 cl
0.00 0.00 396.85 425.20 cl
/Font1 findfont 14 s
0.3020 0.3020 0.3020 srgb
48.16 88.25 (0.00) 1 0 t
48.16 165.98 (0.25) 1 0 t
48.16 243.70 (0.50) 1 0 t
48.16 321.42 (0.75) 1 0 t
48.16 399.15 (1.00) 1 0 t
0.00 0.00 396.85 425.20 cl
0.00 0.00 396.85 425.20 cl
0.2000 0.2000 0.2000 srgb
1.07 setlinewidth
[] 0 setdash
0 setlinecap
1 setlinejoin
10.00 setmiterlimit
np
50.35 93.28 m
2.74 0 l
o
np
50.35 171.00 m
2.74 0 l
o
np
50.35 248.72 m
2.74 0 l
o
np
50.35 326.45 m
2.74 0 l
o
np
50.35 404.17 m
2.74 0 l
o
0.00 0.00 396.85 425.20 cl
0.00 0.00 396.85 425.20 cl
0.00 0.00 396.85 425.20 cl
0.00 0.00 396.85 425.20 cl
0.00 0.00 396.85 425.20 cl
0.00 0.00 396.85 425.20 cl
0.00 0.00 396.85 425.20 cl
0.8000 0.8000 0.8000 srgb
2.13 setlinewidth
[] 0 setdash
0 setlinecap
1 setlinejoin
10.00 setmiterlimit
np
53.09 77.73 m
338.28 0 l
o
0.00 0.00 396.85 425.20 cl
0.00 0.00 396.85 425.20 cl
0.00 0.00 396.85 425.20 cl
0.2000 0.2000 0.2000 srgb
1.07 setlinewidth
[] 0 setdash
0 setlinecap
1 setlinejoin
10.00 setmiterlimit
np
68.46 74.99 m
0 2.74 l
o
np
145.35 74.99 m
0 2.74 l
o
np
222.23 74.99 m
0 2.74 l
o
np
299.11 74.99 m
0 2.74 l
o
np
375.99 74.99 m
0 2.74 l
o
0.00 0.00 396.85 425.20 cl
0.00 0.00 396.85 425.20 cl
/Font1 findfont 14 s
0.3020 0.3020 0.3020 srgb
68.46 62.75 (0.00) .5 0 t
145.35 62.75 (0.25) .5 0 t
222.23 62.75 (0.50) .5 0 t
299.11 62.75 (0.75) .5 0 t
375.99 62.75 (1.00) .5 0 t
0.00 0.00 396.85 425.20 cl
0.00 0.00 396.85 425.20 cl
0.00 0.00 396.85 425.20 cl
0.00 0.00 396.85 425.20 cl
0.00 0.00 396.85 425.20 cl
0.00 0.00 396.85 425.20 cl
/Font1 findfont 14 s
0 0 0 srgb
222.23 47.32 (Link Density) .5 0 t
0.00 0.00 396.85 425.20 cl
0.00 0.00 396.85 425.20 cl
/Font1 findfont 14 s
0 0 0 srgb
15.53 163.14 (Fisher Inf) 90 ta
-0.420 (or) tb
0.350 (mation Measure) tb gr
0.00 0.00 396.85 425.20 cl
0.00 0.00 396.85 425.20 cl
0.00 0.00 396.85 425.20 cl
0.00 0.00 396.85 425.20 cl
0.00 0.00 396.85 425.20 cl
0.00 0.00 396.85 425.20 cl
0.00 0.00 396.85 425.20 cl
0.00 0.00 396.85 425.20 cl
/bg { 1 1 1 srgb } def
192.54 5.48 59.37 28.24 r p2
0.00 0.00 396.85 425.20 cl
0.00 0.00 396.85 425.20 cl
0.00 0.00 396.85 425.20 cl
0.00 0.00 396.85 425.20 cl
/bg { 0.9490 0.9490 0.9490 srgb } def
1 1 1 srgb
1.07 setlinewidth
[] 0 setdash
1 setlinecap
1 setlinejoin
10.00 setmiterlimit
198.02 10.96 17.28 17.28 r p3
0.00 0.00 396.85 425.20 cl
0.00 0.00 396.85 425.20 cl
0.3294 0.6235 0.5765 srgb
0.71 setlinewidth
[] 0 setdash
1 setlinecap
1 setlinejoin
10.00 setmiterlimit
np
203.11 19.60 m
7.11 0 l
o
np
206.66 16.04 m
0 7.11 l
o
203.11 16.04 7.11 7.11 r p1
0.00 0.00 396.85 425.20 cl
0.00 0.00 396.85 425.20 cl
0.00 0.00 396.85 425.20 cl
0.00 0.00 396.85 425.20 cl
/Font1 findfont 14 s
0 0 0 srgb
215.30 14.57 (1000) 0 0 t
0.00 0.00 396.85 425.20 cl
0.00 0.00 396.85 425.20 cl
0.00 0.00 396.85 425.20 cl
0.00 0.00 396.85 425.20 cl
0.00 0.00 396.85 425.20 cl
0.00 0.00 396.85 425.20 cl
0.00 0.00 396.85 425.20 cl
0.00 0.00 396.85 425.20 cl
0.00 0.00 396.85 425.20 cl
0.00 0.00 396.85 425.20 cl
0.00 0.00 396.85 425.20 cl
0.00 0.00 396.85 425.20 cl
0.00 0.00 396.85 425.20 cl
ep
%%Trailer
%%Pages: 1
%%EOF
