%!PS-Adobe-3.0
%%DocumentNeededResources: font Helvetica
%%+ font Helvetica-Bold
%%+ font Helvetica-Oblique
%%+ font Helvetica-BoldOblique
%%+ font Symbol
%%DocumentMedia: a4 595 841 0 () ()
%%Title: R Graphics Output
%%Creator: R Software
%%Pages: (atend)
%%Orientation: Landscape
%%BoundingBox: 18 18 577 824
%%EndComments
%%BeginProlog
/bp  { gs sRGB 595.00 0 translate 90 rotate gs } def
% begin .ps.prolog
/gs  { gsave } bind def
/gr  { grestore } bind def
/ep  { showpage gr gr } bind def
/m   { moveto } bind def
/l  { rlineto } bind def
/np  { newpath } bind def
/cp  { closepath } bind def
/f   { fill } bind def
/o   { stroke } bind def
/c   { newpath 0 360 arc } bind def
/r   { 4 2 roll moveto 1 copy 3 -1 roll exch 0 exch rlineto 0 rlineto -1 mul 0 exch rlineto closepath } bind def
/p1  { stroke } bind def
/p2  { gsave bg fill grestore newpath } bind def
/p3  { gsave bg fill grestore stroke } bind def
/p6  { gsave bg eofill grestore newpath } bind def
/p7  { gsave bg eofill grestore stroke } bind def
/t   { 5 -2 roll moveto gsave rotate
       1 index stringwidth pop
       mul neg 0 rmoveto show grestore } bind def
/ta  { 4 -2 roll moveto gsave rotate show } bind def
/tb  { 2 -1 roll 0 rmoveto show } bind def
/cl  { grestore gsave newpath 3 index 3 index moveto 1 index
       4 -1 roll lineto  exch 1 index lineto lineto
       closepath clip newpath } bind def
/rgb { setrgbcolor } bind def
/s   { scalefont setfont } bind def
% end   .ps.prolog
/sRGB { [ /CIEBasedABC
          << /DecodeLMN
               [ { dup 0.03928 le
                        {12.92321 div}
                        {0.055 add 1.055 div 2.4 exp }
                     ifelse
                 } bind dup dup
               ]
             /MatrixLMN [0.412457 0.212673 0.019334
                         0.357576 0.715152 0.119192
                         0.180437 0.072175 0.950301]
             /WhitePoint [0.9505 1.0 1.0890]
           >>
         ] setcolorspace } bind def
/srgb { setcolor } bind def
%%IncludeResource: font Helvetica
/Helvetica findfont
dup length dict begin
  {1 index /FID ne {def} {pop pop} ifelse} forall
  /Encoding ISOLatin1Encoding def
  currentdict
  end
/Font1 exch definefont pop
%%IncludeResource: font Helvetica-Bold
/Helvetica-Bold findfont
dup length dict begin
  {1 index /FID ne {def} {pop pop} ifelse} forall
  /Encoding ISOLatin1Encoding def
  currentdict
  end
/Font2 exch definefont pop
%%IncludeResource: font Helvetica-Oblique
/Helvetica-Oblique findfont
dup length dict begin
  {1 index /FID ne {def} {pop pop} ifelse} forall
  /Encoding ISOLatin1Encoding def
  currentdict
  end
/Font3 exch definefont pop
%%IncludeResource: font Helvetica-BoldOblique
/Helvetica-BoldOblique findfont
dup length dict begin
  {1 index /FID ne {def} {pop pop} ifelse} forall
  /Encoding ISOLatin1Encoding def
  currentdict
  end
/Font4 exch definefont pop
%%IncludeResource: font Symbol
/Symbol findfont
dup length dict begin
  {1 index /FID ne {def} {pop pop} ifelse} forall
  currentdict
  end
/Font5 exch definefont pop
%%EndProlog
ep
%%Trailer
%%Pages: 0
%%EOF
.89 577.28 cl
77.04 91.44 793.65 518.24 cl
0.6627 0.6627 0.6627 srgb
0.75 setlinewidth
[] 0 setdash
1 setlinecap
1 setlinejoin
10.00 setmiterlimit
np
419.13 352.34 m
-32.24 -114.98 l
o
np
431.80 316.65 m
-31.93 121.56 l
o
np
538.35 272.75 m
-134.96 167.24 l
o
np
541.76 360.58 m
-217.75 37.65 l
o
np
375.02 227.09 m
-66.71 -8.64 l
o
np
462.93 208.09 m
-154.56 8.63 l
o
np
544.83 351.89 m
-168.42 -192.65 l
o
np
487.30 423.27 m
-113.36 -262.48 l
o
np
545.27 256.07 m
7.43 -68.72 l
o
np
308.30 218.52 m
289.36 39.54 l
o
np
377.37 158.26 m
225.42 192.46 l
o
np
545.22 274.79 m
16.14 157.82 l
o
np
500.34 433.23 m
52.66 7.43 l
o
np
482.05 429.10 m
-225.35 -70.49 l
o
np
295.71 226.07 m
-44.72 120.90 l
o
np
545.57 182.73 m
-289.71 168.34 l
o
np
463.14 209.60 m
-206.79 45.93 l
o
np
391.64 439.94 m
-138.63 -174.99 l
o
np
310.70 391.33 m
-59.50 -125.26 l
o
np
353.49 303.19 m
-54.87 -122.91 l
o
np
463.10 205.70 m
-159.10 -32.14 l
o
np
545.51 351.35 m
-161.72 -223.42 l
o
np
598.94 254.45 m
-212.63 -129.26 l
o
np
557.64 433.81 m
-174.70 -305.34 l
o
np
284.15 304.69 m
185.31 -181.45 l
o
np
254.22 348.99 m
215.46 -225.53 l
o
np
440.43 300.51 m
116.67 -131.66 l
o
np
427.12 353.72 m
130.78 -184.24 l
o
np
493.46 422.82 m
67.45 -251.93 l
o
np
285.76 306.92 m
269.25 -140.76 l
o
np
484.53 120.98 m
70.46 36.50 l
o
np
564.83 432.91 m
49.85 -179.58 l
o
np
560.21 356.92 m
54.13 -12.09 l
o
np
498.83 426.66 m
116.89 -78.63 l
o
np
616.48 350.07 m
0.51 -0.53 l
o
np
388.66 485.45 m
226.82 -137.79 l
o
np
546.26 274.62 m
32.08 147.71 l
o
np
406.86 446.50 m
164.11 -14.17 l
o
np
375.87 159.67 m
198.81 264.33 l
o
np
605.54 268.64 m
-23.76 153.58 l
o
np
301.74 178.02 m
271.64 247.17 l
o
np
383.39 128.19 m
191.83 295.44 l
o
np
479.13 125.59 m
98.25 297.00 l
o
np
437.38 316.40 m
58.17 161.47 l
o
np
304.58 224.80 m
188.55 254.36 l
o
np
483.23 437.18 m
-74.94 50.58 l
o
np
282.70 319.07 m
112.52 166.16 l
o
np
549.59 186.46 m
-144.98 298.10 l
o
np
600.75 266.39 m
-194.03 219.58 l
o
np
389.94 491.59 m
1.23 0.17 l
o
np
571.44 434.57 m
-162.04 55.40 l
o
np
354.40 320.72 m
-38.76 118.40 l
o
np
536.88 271.25 m
-216.78 170.99 l
o
np
464.75 213.15 m
-196.61 145.20 l
o
np
274.56 320.24 m
-11.12 34.74 l
o
np
374.18 128.78 m
-109.51 226.69 l
o
np
614.13 343.32 m
-344.16 20.07 l
o
np
463.24 210.01 m
-194.15 52.28 l
o
np
291.49 180.51 m
-28.19 75.42 l
o
np
354.26 302.88 m
-39.05 -113.58 l
o
np
303.19 175.91 m
0.55 0.28 l
o
np
493.84 478.69 m
-176.80 -290.25 l
o
np
397.93 483.96 m
-83.22 -294.50 l
o
np
488.29 422.91 m
-83.95 -275.88 l
o
np
608.75 240.11 m
-198.71 -97.93 l
o
np
267.01 258.46 m
127.58 -114.16 l
o
np
437.85 298.88 m
58.00 -137.49 l
o
np
255.05 349.89 m
237.14 -191.27 l
o
np
549.21 257.42 m
17.61 -28.50 l
o
np
607.40 347.77 m
-33.08 -117.79 l
o
np
481.12 481.98 m
87.56 -252.17 l
o
np
608.83 239.96 m
-28.69 -14.74 l
o
np
619.85 334.12 m
-44.40 -104.54 l
o
np
410.06 142.14 m
153.25 74.66 l
o
np
497.25 424.85 m
87.13 -98.91 l
o
np
604.49 268.41 m
-11.39 41.40 l
o
np
605.67 348.45 m
-10.80 -21.18 l
o
np
269.29 266.26 m
312.03 51.10 l
o
np
441.19 313.84 m
98.34 88.34 l
o
np
375.55 159.91 m
165.65 240.80 l
o
np
484.05 483.63 m
56.46 -67.93 l
o
np
256.99 357.43 m
280.27 49.40 l
o
np
301.63 178.14 m
238.04 223.88 l
o
np
478.38 125.80 m
65.94 273.52 l
o
np
572.57 426.22 m
-18.27 -12.45 l
o
np
406.04 146.32 m
136.04 253.85 l
o
np
407.96 487.30 m
40.64 -31.16 l
o
np
429.10 315.46 m
-63.82 99.05 l
o
np
467.97 215.90 m
-103.44 198.17 l
o
np
552.95 441.07 m
-183.41 -17.75 l
o
np
541.66 358.06 m
-222.58 -21.68 l
o
np
297.60 431.52 m
10.93 -86.72 l
o
np
299.92 179.57 m
33.38 51.17 l
o
np
554.44 164.84 m
-207.10 70.74 l
o
np
316.02 188.98 m
18.55 41.07 l
o
np
396.59 145.99 m
-53.15 84.67 l
o
np
562.39 221.63 m
-214.57 16.28 l
o
np
319.51 391.72 m
107.82 -183.12 l
o
np
308.31 216.07 m
114.46 -14.41 l
o
np
471.80 124.98 m
-35.32 67.18 l
o
np
405.73 146.48 m
22.25 45.55 l
o
np
562.46 219.56 m
-121.05 -17.71 l
o
np
363.08 413.46 m
66.12 -204.02 l
o
np
322.45 394.45 m
184.58 -128.80 l
o
np
559.93 432.87 m
-42.80 -163.50 l
o
np
478.62 125.74 m
33.68 125.44 l
o
np
576.97 422.73 m
-58.86 -153.68 l
o
np
404.64 484.57 m
105.96 -215.86 l
o
np
544.55 399.27 m
-27.83 -129.81 l
o
np
556.06 434.94 m
-59.70 -67.16 l
o
np
257.13 355.99 m
223.57 4.56 l
o
np
560.09 170.63 m
-66.73 181.28 l
o
np
498.09 477.33 m
-7.34 -107.20 l
o
np
368.68 418.38 m
112.93 -53.60 l
o
np
435.31 209.34 m
51.60 142.56 l
o
np
384.69 237.70 m
3.25 90.90 l
o
np
467.23 215.47 m
-73.86 114.63 l
o
np
535.73 269.39 m
-138.92 64.65 l
o
np
614.12 342.59 m
-216.44 -4.39 l
o
np
571.88 427.40 m
-175.14 -85.27 l
o
np
316.24 188.88 m
67.94 140.65 l
o
np
373.79 160.85 m
56.82 138.00 l
o
np
581.22 318.20 m
-137.64 -9.97 l
o
np
454.65 441.12 m
-19.03 -124.27 l
o
/bg { 1 0.6471 0 srgb } def
1 1 1 srgb
434.19 307.55 9.41 c p3
421.68 361.40 9.41 c p3
357.32 311.78 9.41 c p3
384.35 228.30 9.41 c p3
472.32 207.56 9.41 c p3
544.26 265.43 9.41 c p3
551.03 358.97 9.41 c p3
491.03 431.91 9.41 c p3
397.48 447.31 9.41 c p3
314.74 399.83 9.41 c p3
277.43 311.28 9.41 c p3
298.98 217.25 9.41 c p3
370.21 152.15 9.41 c p3
465.66 137.81 9.41 c p3
553.71 178.00 9.41 c p3
606.98 259.34 9.41 c p3
609.94 356.83 9.41 c p3
562.32 441.98 9.41 c p3
478.04 490.87 9.41 c p3
380.61 490.33 9.41 c p3
296.42 440.85 9.41 c p3
247.73 355.80 9.41 c p3
247.16 257.57 9.41 c p3
294.78 171.69 9.41 c p3
378.27 120.30 9.41 c p3
476.18 116.66 9.41 c p3
563.35 161.80 9.41 c p3
617.19 244.27 9.41 c p3
623.53 342.78 9.41 c p3
580.34 431.52 9.41 c p3
498.73 486.72 9.41 c p3
400.49 493.02 9.41 c p3
312.71 448.06 9.41 c p3
260.57 363.94 9.41 c p3
260.00 264.74 9.41 c p3
312.15 180.41 9.41 c p3
401.60 138.02 9.41 c p3
499.51 152.72 9.41 c p3
571.77 220.92 9.41 c p3
590.60 318.88 9.41 c p3
546.53 408.47 9.41 c p3
456.07 450.42 9.41 c p3
360.18 422.41 9.41 c p3
309.71 335.46 9.41 c p3
338.44 238.62 9.41 c p3
432.10 200.49 9.41 c p3
514.74 260.26 9.41 c p3
490.11 360.74 9.41 c p3
388.28 338.01 9.41 c p3
434.19 307.55 9.41 c p3
18.00 18.00 823.89 577.28 cl
ep
%%Trailer
%%Pages: 1
%%EOF
