%!PS-Adobe-3.0
%%DocumentNeededResources: font Helvetica
%%+ font Helvetica-Bold
%%+ font Helvetica-Oblique
%%+ font Helvetica-BoldOblique
%%+ font Symbol
%%DocumentMedia: a4 595 841 0 () ()
%%Title: R Graphics Output
%%Creator: R Software
%%Pages: (atend)
%%Orientation: Landscape
%%BoundingBox: 18 18 577 824
%%EndComments
%%BeginProlog
/bp  { gs sRGB 595.00 0 translate 90 rotate gs } def
% begin .ps.prolog
/gs  { gsave } bind def
/gr  { grestore } bind def
/ep  { showpage gr gr } bind def
/m   { moveto } bind def
/l  { rlineto } bind def
/np  { newpath } bind def
/cp  { closepath } bind def
/f   { fill } bind def
/o   { stroke } bind def
/c   { newpath 0 360 arc } bind def
/r   { 4 2 roll moveto 1 copy 3 -1 roll exch 0 exch rlineto 0 rlineto -1 mul 0 exch rlineto closepath } bind def
/p1  { stroke } bind def
/p2  { gsave bg fill grestore newpath } bind def
/p3  { gsave bg fill grestore stroke } bind def
/p6  { gsave bg eofill grestore newpath } bind def
/p7  { gsave bg eofill grestore stroke } bind def
/t   { 5 -2 roll moveto gsave rotate
       1 index stringwidth pop
       mul neg 0 rmoveto show grestore } bind def
/ta  { 4 -2 roll moveto gsave rotate show } bind def
/tb  { 2 -1 roll 0 rmoveto show } bind def
/cl  { grestore gsave newpath 3 index 3 index moveto 1 index
       4 -1 roll lineto  exch 1 index lineto lineto
       closepath clip newpath } bind def
/rgb { setrgbcolor } bind def
/s   { scalefont setfont } bind def
% end   .ps.prolog
/sRGB { [ /CIEBasedABC
          << /DecodeLMN
               [ { dup 0.03928 le
                        {12.92321 div}
                        {0.055 add 1.055 div 2.4 exp }
                     ifelse
                 } bind dup dup
               ]
             /MatrixLMN [0.412457 0.212673 0.019334
                         0.357576 0.715152 0.119192
                         0.180437 0.072175 0.950301]
             /WhitePoint [0.9505 1.0 1.0890]
           >>
         ] setcolorspace } bind def
/srgb { setcolor } bind def
%%IncludeResource: font Helvetica
/Helvetica findfont
dup length dict begin
  {1 index /FID ne {def} {pop pop} ifelse} forall
  /Encoding ISOLatin1Encoding def
  currentdict
  end
/Font1 exch definefont pop
%%IncludeResource: font Helvetica-Bold
/Helvetica-Bold findfont
dup length dict begin
  {1 index /FID ne {def} {pop pop} ifelse} forall
  /Encoding ISOLatin1Encoding def
  currentdict
  end
/Font2 exch definefont pop
%%IncludeResource: font Helvetica-Oblique
/Helvetica-Oblique findfont
dup length dict begin
  {1 index /FID ne {def} {pop pop} ifelse} forall
  /Encoding ISOLatin1Encoding def
  currentdict
  end
/Font3 exch definefont pop
%%IncludeResource: font Helvetica-BoldOblique
/Helvetica-BoldOblique findfont
dup length dict begin
  {1 index /FID ne {def} {pop pop} ifelse} forall
  /Encoding ISOLatin1Encoding def
  currentdict
  end
/Font4 exch definefont pop
%%IncludeResource: font Symbol
/Symbol findfont
dup length dict begin
  {1 index /FID ne {def} {pop pop} ifelse} forall
  currentdict
  end
/Font5 exch definefont pop
%%EndProlog
ep
%%Trailer
%%Pages: 0
%%EOF
.89 577.28 cl
77.04 91.44 793.65 518.24 cl
0.6627 0.6627 0.6627 srgb
0.75 setlinewidth
[] 0 setdash
1 setlinecap
1 setlinejoin
10.00 setmiterlimit
np
622.94 314.23 m
-0.31 4.85 l
o
np
620.28 337.71 m
-0.91 4.78 l
o
np
614.71 360.68 m
-1.50 4.62 l
o
np
606.31 382.77 m
-2.06 4.39 l
o
np
595.22 403.62 m
-2.60 4.10 l
o
np
581.60 422.92 m
-3.09 3.74 l
o
np
565.67 440.36 m
-3.52 3.31 l
o
np
547.69 455.66 m
-3.91 2.84 l
o
np
527.94 468.58 m
-4.23 2.33 l
o
np
506.72 478.92 m
-4.48 1.77 l
o
np
484.38 486.51 m
-4.66 1.20 l
o
np
461.27 491.23 m
-4.77 0.61 l
o
np
437.75 493.02 m
-4.81 0 l
o
np
414.19 491.84 m
-4.77 -0.61 l
o
np
390.97 487.71 m
-4.66 -1.20 l
o
np
368.45 480.69 m
-4.48 -1.77 l
o
np
346.98 470.91 m
-4.23 -2.33 l
o
np
326.91 458.50 m
-3.91 -2.84 l
o
np
308.54 443.67 m
-3.52 -3.31 l
o
np
292.18 426.66 m
-3.09 -3.74 l
o
np
278.07 407.72 m
-2.60 -4.10 l
o
np
266.44 387.16 m
-2.06 -4.39 l
o
np
257.48 365.30 m
-1.50 -4.62 l
o
np
251.32 342.49 m
-0.91 -4.78 l
o
np
248.06 319.08 m
-0.31 -4.85 l
o
np
247.75 295.45 m
0.31 -4.85 l
o
np
250.41 271.96 m
0.91 -4.77 l
o
np
255.98 249.00 m
1.50 -4.62 l
o
np
264.38 226.91 m
2.06 -4.39 l
o
np
275.47 206.05 m
2.60 -4.09 l
o
np
289.09 186.75 m
3.09 -3.73 l
o
np
305.02 169.32 m
3.52 -3.32 l
o
np
323.00 154.02 m
3.91 -2.85 l
o
np
342.75 141.10 m
4.23 -2.33 l
o
np
363.97 130.76 m
4.48 -1.78 l
o
np
386.31 123.17 m
4.66 -1.20 l
o
np
409.42 118.44 m
4.77 -0.60 l
o
np
432.94 116.66 m
4.81 0 l
o
np
456.50 117.84 m
4.77 0.60 l
o
np
479.72 121.97 m
4.66 1.20 l
o
np
502.24 128.98 m
4.48 1.78 l
o
np
523.71 138.77 m
4.23 2.33 l
o
np
543.78 151.17 m
3.91 2.85 l
o
np
562.15 166.00 m
3.52 3.32 l
o
np
578.51 183.02 m
3.09 3.73 l
o
np
592.62 201.96 m
2.60 4.09 l
o
np
604.25 222.52 m
2.06 4.39 l
o
np
613.21 244.38 m
1.50 4.62 l
o
np
619.37 267.19 m
0.91 4.77 l
o
np
622.94 295.45 m
-0.31 -4.85 l
o
/bg { 1 0.6471 0 srgb } def
1 1 1 srgb
623.53 304.84 9.41 c p3
622.04 328.47 9.41 c p3
617.61 351.73 9.41 c p3
610.31 374.25 9.41 c p3
600.25 395.67 9.41 c p3
587.59 415.67 9.41 c p3
572.52 433.91 9.41 c p3
555.30 450.12 9.41 c p3
536.18 464.04 9.41 c p3
515.47 475.45 9.41 c p3
493.50 484.16 9.41 c p3
470.61 490.05 9.41 c p3
447.16 493.02 9.41 c p3
423.53 493.02 9.41 c p3
400.08 490.05 9.41 c p3
377.19 484.16 9.41 c p3
355.22 475.45 9.41 c p3
334.51 464.04 9.41 c p3
315.39 450.12 9.41 c p3
298.17 433.91 9.41 c p3
283.10 415.67 9.41 c p3
270.44 395.67 9.41 c p3
260.38 374.25 9.41 c p3
253.08 351.73 9.41 c p3
248.65 328.47 9.41 c p3
247.16 304.84 9.41 c p3
248.65 281.21 9.41 c p3
253.08 257.95 9.41 c p3
260.38 235.43 9.41 c p3
270.44 214.00 9.41 c p3
283.10 194.01 9.41 c p3
298.17 175.76 9.41 c p3
315.39 159.55 9.41 c p3
334.51 145.64 9.41 c p3
355.22 134.23 9.41 c p3
377.19 125.51 9.41 c p3
400.08 119.62 9.41 c p3
423.53 116.66 9.41 c p3
447.16 116.66 9.41 c p3
470.61 119.62 9.41 c p3
493.50 125.51 9.41 c p3
515.47 134.23 9.41 c p3
536.18 145.64 9.41 c p3
555.30 159.55 9.41 c p3
572.52 175.76 9.41 c p3
587.59 194.01 9.41 c p3
600.25 214.00 9.41 c p3
610.31 235.43 9.41 c p3
617.61 257.95 9.41 c p3
622.04 281.21 9.41 c p3
18.00 18.00 823.89 577.28 cl
ep
%%Trailer
%%Pages: 1
%%EOF
