%!PS-Adobe-3.0
%%DocumentNeededResources: font Helvetica
%%+ font Helvetica-Bold
%%+ font Helvetica-Oblique
%%+ font Helvetica-BoldOblique
%%+ font Symbol
%%DocumentMedia: a4 595 841 0 () ()
%%Title: R Graphics Output
%%Creator: R Software
%%Pages: (atend)
%%Orientation: Landscape
%%BoundingBox: 18 18 577 824
%%EndComments
%%BeginProlog
/bp  { gs sRGB 595.00 0 translate 90 rotate gs } def
% begin .ps.prolog
/gs  { gsave } bind def
/gr  { grestore } bind def
/ep  { showpage gr gr } bind def
/m   { moveto } bind def
/l  { rlineto } bind def
/np  { newpath } bind def
/cp  { closepath } bind def
/f   { fill } bind def
/o   { stroke } bind def
/c   { newpath 0 360 arc } bind def
/r   { 4 2 roll moveto 1 copy 3 -1 roll exch 0 exch rlineto 0 rlineto -1 mul 0 exch rlineto closepath } bind def
/p1  { stroke } bind def
/p2  { gsave bg fill grestore newpath } bind def
/p3  { gsave bg fill grestore stroke } bind def
/p6  { gsave bg eofill grestore newpath } bind def
/p7  { gsave bg eofill grestore stroke } bind def
/t   { 5 -2 roll moveto gsave rotate
       1 index stringwidth pop
       mul neg 0 rmoveto show grestore } bind def
/ta  { 4 -2 roll moveto gsave rotate show } bind def
/tb  { 2 -1 roll 0 rmoveto show } bind def
/cl  { grestore gsave newpath 3 index 3 index moveto 1 index
       4 -1 roll lineto  exch 1 index lineto lineto
       closepath clip newpath } bind def
/rgb { setrgbcolor } bind def
/s   { scalefont setfont } bind def
% end   .ps.prolog
/sRGB { [ /CIEBasedABC
          << /DecodeLMN
               [ { dup 0.03928 le
                        {12.92321 div}
                        {0.055 add 1.055 div 2.4 exp }
                     ifelse
                 } bind dup dup
               ]
             /MatrixLMN [0.412457 0.212673 0.019334
                         0.357576 0.715152 0.119192
                         0.180437 0.072175 0.950301]
             /WhitePoint [0.9505 1.0 1.0890]
           >>
         ] setcolorspace } bind def
/srgb { setcolor } bind def
%%IncludeResource: font Helvetica
/Helvetica findfont
dup length dict begin
  {1 index /FID ne {def} {pop pop} ifelse} forall
  /Encoding ISOLatin1Encoding def
  currentdict
  end
/Font1 exch definefont pop
%%IncludeResource: font Helvetica-Bold
/Helvetica-Bold findfont
dup length dict begin
  {1 index /FID ne {def} {pop pop} ifelse} forall
  /Encoding ISOLatin1Encoding def
  currentdict
  end
/Font2 exch definefont pop
%%IncludeResource: font Helvetica-Oblique
/Helvetica-Oblique findfont
dup length dict begin
  {1 index /FID ne {def} {pop pop} ifelse} forall
  /Encoding ISOLatin1Encoding def
  currentdict
  end
/Font3 exch definefont pop
%%IncludeResource: font Helvetica-BoldOblique
/Helvetica-BoldOblique findfont
dup length dict begin
  {1 index /FID ne {def} {pop pop} ifelse} forall
  /Encoding ISOLatin1Encoding def
  currentdict
  end
/Font4 exch definefont pop
%%IncludeResource: font Symbol
/Symbol findfont
dup length dict begin
  {1 index /FID ne {def} {pop pop} ifelse} forall
  currentdict
  end
/Font5 exch definefont pop
%%EndProlog
ep
%%Trailer
%%Pages: 0
%%EOF
.89 577.28 cl
77.04 91.44 793.65 518.24 cl
0.6627 0.6627 0.6627 srgb
0.75 setlinewidth
[] 0 setdash
1 setlinecap
1 setlinejoin
10.00 setmiterlimit
np
432.48 119.57 m
113.87 37.07 l
o
np
612.93 330.81 m
-320.71 82.51 l
o
np
600.98 375.43 m
-308.54 39.06 l
o
np
601.36 371.34 m
-339.34 -110.48 l
o
np
595.22 403.62 m
-2.60 4.10 l
o
np
581.60 422.92 m
-3.09 3.74 l
o
np
565.67 440.36 m
-3.52 3.31 l
o
np
548.05 444.12 m
-270.37 -224.11 l
o
np
527.94 468.58 m
-4.23 2.33 l
o
np
496.40 475.21 m
88.28 -272.25 l
o
np
592.64 401.21 m
-114.43 83.30 l
o
np
446.57 483.63 m
-22.45 -357.58 l
o
np
437.75 493.02 m
-4.81 0 l
o
np
414.19 491.84 m
-4.77 -0.61 l
o
np
461.22 489.46 m
-74.64 -4.71 l
o
np
376.60 474.77 m
-20.79 -331.15 l
o
np
268.89 370.24 m
322.85 -152.23 l
o
np
347.28 470.40 m
-23.95 -15.23 l
o
np
301.07 424.96 m
96.11 -296.39 l
o
np
292.64 426.29 m
-16.68 -23.00 l
o
np
278.95 391.66 m
322.85 -152.22 l
o
np
266.44 387.16 m
-2.06 -4.39 l
o
np
599.07 386.34 m
-25.37 -201.24 l
o
np
439.55 487.48 m
-178.87 -130.21 l
o
np
248.06 319.08 m
-0.31 -4.85 l
o
np
256.59 276.16 m
228.97 -145.60 l
o
np
370.34 477.72 m
-103.11 -97.02 l
o
np
255.98 249.00 m
1.50 -4.62 l
o
np
264.38 226.91 m
2.06 -4.39 l
o
np
275.47 206.05 m
2.60 -4.09 l
o
np
255.41 342.61 m
40.42 -157.73 l
o
np
568.52 425.39 m
-140.99 -300.22 l
o
np
613.80 323.93 m
-290.17 -159.84 l
o
np
342.75 141.10 m
4.23 -2.33 l
o
np
363.97 130.76 m
4.48 -1.78 l
o
np
386.31 123.17 m
4.66 -1.20 l
o
np
364.17 131.32 m
26.97 -8.78 l
o
np
256.55 304.25 m
356.10 -22.45 l
o
np
275.96 388.06 m
189.12 -260.82 l
o
np
386.58 124.92 m
74.64 -4.70 l
o
np
386.53 126.69 m
140.31 17.77 l
o
np
305.41 427.91 m
274.93 -227.90 l
o
np
409.20 121.97 m
136.98 35.24 l
o
np
562.15 166.00 m
3.52 3.32 l
o
np
450.62 484.27 m
118.45 -299.76 l
o
np
518.37 466.50 m
78.98 -243.55 l
o
np
257.89 279.44 m
333.12 -63.67 l
o
np
603.71 222.75 m
10.45 26.45 l
o
np
453.15 485.76 m
162.90 -197.30 l
o
np
615.59 309.89 m
-252.43 160.51 l
o
np
622.35 314.17 m
-3.56 28.22 l
o
np
622.35 295.50 m
-3.56 -28.22 l
o
np
256.59 323.42 m
271.65 -172.73 l
o
np
619.71 337.58 m
-7.06 27.55 l
o
np
614.16 360.48 m
-10.45 26.44 l
o
np
588.76 406.33 m
20.37 -161.57 l
o
np
594.73 403.29 m
-16.68 23.00 l
o
np
581.60 408.41 m
-220.39 -266.92 l
o
np
530.19 456.78 m
-226.03 -273.76 l
o
np
269.12 231.96 m
237.60 -94.26 l
o
np
619.00 313.09 m
-78.30 142.70 l
o
np
506.52 478.36 m
-26.97 8.78 l
o
np
440.73 486.15 m
-185.65 -198.08 l
o
np
461.22 490.64 m
-28.30 1.79 l
o
np
398.32 480.81 m
-62.05 -325.93 l
o
np
414.29 491.25 m
-27.85 -5.32 l
o
np
260.32 251.94 m
155.96 -129.28 l
o
np
269.62 233.66 m
293.66 -56.13 l
o
np
322.64 444.12 m
270.37 -224.11 l
o
np
614.78 308.31 m
-307.87 122.13 l
o
np
308.96 443.26 m
-19.42 -20.73 l
o
np
306.11 428.86 m
296.26 -188.38 l
o
np
278.58 407.42 m
-13.68 -24.92 l
o
np
250.62 296.09 m
44.09 -111.58 l
o
np
250.41 319.23 m
18.27 -95.99 l
o
np
354.63 466.06 m
-19.53 -311.03 l
o
np
461.36 488.29 m
-117.61 -22.48 l
o
np
261.02 252.90 m
201.65 -128.23 l
o
np
250.98 272.09 m
7.06 -27.55 l
o
np
281.34 406.42 m
-26.50 -139.23 l
o
np
392.84 484.05 m
-125.22 -103.80 l
o
np
564.92 428.37 m
-286.87 -208.83 l
o
np
289.54 187.14 m
19.42 -20.72 l
o
np
289.96 187.56 m
37.70 -35.48 l
o
np
364.33 136.57 m
214.14 55.09 l
o
np
309.87 442.50 m
-43.97 -60.63 l
o
np
485.89 478.63 m
-231.12 -168.25 l
o
np
386.44 123.75 m
27.85 -5.33 l
o
np
256.11 301.93 m
322.53 -105.01 l
o
np
364.61 133.64 m
119.50 -7.54 l
o
np
533.84 454.92 m
-84.34 -329.15 l
o
np
479.55 122.54 m
26.97 8.78 l
o
np
609.10 347.72 m
-317.49 -149.70 l
o
np
279.10 407.15 m
-22.02 -46.90 l
o
np
424.71 483.68 m
44.72 -354.72 l
o
np
561.73 166.42 m
19.42 20.72 l
o
np
578.05 183.38 m
16.68 23.00 l
o
np
518.93 466.70 m
87.92 -222.52 l
o
np
499.93 132.38 m
111.25 118.70 l
o
np
622.04 319.06 m
0 -28.45 l
o
/bg { 1 0.6471 0 srgb } def
1 1 1 srgb
623.53 304.84 9.41 c p3
622.04 328.47 9.41 c p3
617.61 351.73 9.41 c p3
610.31 374.25 9.41 c p3
600.25 395.67 9.41 c p3
587.59 415.67 9.41 c p3
572.52 433.91 9.41 c p3
555.30 450.12 9.41 c p3
536.18 464.04 9.41 c p3
515.47 475.45 9.41 c p3
493.50 484.16 9.41 c p3
470.61 490.05 9.41 c p3
447.16 493.02 9.41 c p3
423.53 493.02 9.41 c p3
400.08 490.05 9.41 c p3
377.19 484.16 9.41 c p3
355.22 475.45 9.41 c p3
334.51 464.04 9.41 c p3
315.39 450.12 9.41 c p3
298.17 433.91 9.41 c p3
283.10 415.67 9.41 c p3
270.44 395.67 9.41 c p3
260.38 374.25 9.41 c p3
253.08 351.73 9.41 c p3
248.65 328.47 9.41 c p3
247.16 304.84 9.41 c p3
248.65 281.21 9.41 c p3
253.08 257.95 9.41 c p3
260.38 235.43 9.41 c p3
270.44 214.00 9.41 c p3
283.10 194.01 9.41 c p3
298.17 175.76 9.41 c p3
315.39 159.55 9.41 c p3
334.51 145.64 9.41 c p3
355.22 134.23 9.41 c p3
377.19 125.51 9.41 c p3
400.08 119.62 9.41 c p3
423.53 116.66 9.41 c p3
447.16 116.66 9.41 c p3
470.61 119.62 9.41 c p3
493.50 125.51 9.41 c p3
515.47 134.23 9.41 c p3
536.18 145.64 9.41 c p3
555.30 159.55 9.41 c p3
572.52 175.76 9.41 c p3
587.59 194.01 9.41 c p3
600.25 214.00 9.41 c p3
610.31 235.43 9.41 c p3
617.61 257.95 9.41 c p3
622.04 281.21 9.41 c p3
18.00 18.00 823.89 577.28 cl
ep
%%Trailer
%%Pages: 1
%%EOF
