%!PS-Adobe-3.0 EPSF-3.0
%%DocumentNeededResources: font Helvetica
%%+ font Helvetica-Bold
%%+ font Helvetica-Oblique
%%+ font Helvetica-BoldOblique
%%+ font Symbol
%%Title: R Graphics Output
%%Creator: R Software
%%Pages: (atend)
%%BoundingBox: 0 0 468 397
%%EndComments
%%BeginProlog
/bp  { gs sRGB gs } def
% begin .ps.prolog
/gs  { gsave } bind def
/gr  { grestore } bind def
/ep  { showpage gr gr } bind def
/m   { moveto } bind def
/l  { rlineto } bind def
/np  { newpath } bind def
/cp  { closepath } bind def
/f   { fill } bind def
/o   { stroke } bind def
/c   { newpath 0 360 arc } bind def
/r   { 4 2 roll moveto 1 copy 3 -1 roll exch 0 exch rlineto 0 rlineto -1 mul 0 exch rlineto closepath } bind def
/p1  { stroke } bind def
/p2  { gsave bg fill grestore newpath } bind def
/p3  { gsave bg fill grestore stroke } bind def
/p6  { gsave bg eofill grestore newpath } bind def
/p7  { gsave bg eofill grestore stroke } bind def
/t   { 5 -2 roll moveto gsave rotate
       1 index stringwidth pop
       mul neg 0 rmoveto show grestore } bind def
/ta  { 4 -2 roll moveto gsave rotate show } bind def
/tb  { 2 -1 roll 0 rmoveto show } bind def
/cl  { grestore gsave newpath 3 index 3 index moveto 1 index
       4 -1 roll lineto  exch 1 index lineto lineto
       closepath clip newpath } bind def
/rgb { setrgbcolor } bind def
/s   { scalefont setfont } bind def
% end   .ps.prolog
/sRGB { [ /CIEBasedABC
          << /DecodeLMN
               [ { dup 0.03928 le
                        {12.92321 div}
                        {0.055 add 1.055 div 2.4 exp }
                     ifelse
                 } bind dup dup
               ]
             /MatrixLMN [0.412457 0.212673 0.019334
                         0.357576 0.715152 0.119192
                         0.180437 0.072175 0.950301]
             /WhitePoint [0.9505 1.0 1.0890]
           >>
         ] setcolorspace } bind def
/srgb { setcolor } bind def
%%IncludeResource: font Helvetica
/Helvetica findfont
dup length dict begin
  {1 index /FID ne {def} {pop pop} ifelse} forall
  /Encoding ISOLatin1Encoding def
  currentdict
  end
/Font1 exch definefont pop
%%IncludeResource: font Helvetica-Bold
/Helvetica-Bold findfont
dup length dict begin
  {1 index /FID ne {def} {pop pop} ifelse} forall
  /Encoding ISOLatin1Encoding def
  currentdict
  end
/Font2 exch definefont pop
%%IncludeResource: font Helvetica-Oblique
/Helvetica-Oblique findfont
dup length dict begin
  {1 index /FID ne {def} {pop pop} ifelse} forall
  /Encoding ISOLatin1Encoding def
  currentdict
  end
/Font3 exch definefont pop
%%IncludeResource: font Helvetica-BoldOblique
/Helvetica-BoldOblique findfont
dup length dict begin
  {1 index /FID ne {def} {pop pop} ifelse} forall
  /Encoding ISOLatin1Encoding def
  currentdict
  end
/Font4 exch definefont pop
%%IncludeResource: font Symbol
/Symbol findfont
dup length dict begin
  {1 index /FID ne {def} {pop pop} ifelse} forall
  currentdict
  end
/Font5 exch definefont pop
%%EndProlog
%%Page: 1 1
bp
0.00 0.00 467.72 396.85 cl
0.00 0.00 467.72 396.85 cl
0.00 0.00 467.72 396.85 cl
0.00 0.00 467.72 396.85 cl
0.00 0.00 467.72 396.85 cl
0.00 0.00 467.72 396.85 cl
0.00 0.00 467.72 396.85 cl
0.00 0.00 467.72 396.85 cl
0.00 0.00 467.72 396.85 cl
0.00 0.00 467.72 396.85 cl
/bg { 1 1 1 srgb } def
1 1 1 srgb
1.07 setlinewidth
[] 0 setdash
1 setlinecap
1 setlinejoin
10.00 setmiterlimit
0.00 0.00 467.72 396.85 r p3
0.00 0.00 467.72 396.85 cl
65.06 46.92 462.24 391.37 cl
/bg { 1 1 1 srgb } def
0.4980 0.4980 0.4980 srgb
1.07 setlinewidth
[] 0 setdash
1 setlinecap
1 setlinejoin
10.00 setmiterlimit
65.06 46.92 397.17 344.45 r p3
1 1 1 srgb
0.53 setlinewidth
[] 0 setdash
0 setlinecap
np
65.06 101.72 m
397.18 0 l
o
np
65.06 180.00 m
397.18 0 l
o
np
65.06 258.29 m
397.18 0 l
o
np
65.06 336.57 m
397.18 0 l
o
np
143.29 46.92 m
0 344.45 l
o
np
263.65 46.92 m
0 344.45 l
o
np
384.01 46.92 m
0 344.45 l
o
1.07 setlinewidth
[] 0 setdash
np
65.06 62.58 m
397.18 0 l
o
np
65.06 140.86 m
397.18 0 l
o
np
65.06 219.14 m
397.18 0 l
o
np
65.06 297.43 m
397.18 0 l
o
np
65.06 375.71 m
397.18 0 l
o
np
83.12 46.92 m
0 344.45 l
o
np
203.47 46.92 m
0 344.45 l
o
np
323.83 46.92 m
0 344.45 l
o
np
444.18 46.92 m
0 344.45 l
o
/bg { 0 0 0 srgb } def
0 0 0 srgb
0.71 setlinewidth
[] 0 setdash
1 setlinecap
83.12 335.01 3.56 c p3
84.32 331.56 3.56 c p3
85.52 330.94 3.56 c p3
86.73 332.19 3.56 c p3
87.93 328.74 3.56 c p3
89.13 330.00 3.56 c p3
90.34 330.31 3.56 c p3
91.54 331.56 3.56 c p3
92.74 330.31 3.56 c p3
93.95 331.87 3.56 c p3
95.15 332.19 3.56 c p3
96.36 332.50 3.56 c p3
97.56 331.87 3.56 c p3
98.76 331.87 3.56 c p3
99.97 331.87 3.56 c p3
101.17 330.94 3.56 c p3
102.37 334.38 3.56 c p3
103.58 331.87 3.56 c p3
104.78 333.44 3.56 c p3
105.98 331.87 3.56 c p3
107.19 332.81 3.56 c p3
108.39 331.87 3.56 c p3
109.59 334.38 3.56 c p3
110.80 332.81 3.56 c p3
112.00 332.50 3.56 c p3
113.21 332.19 3.56 c p3
114.41 332.19 3.56 c p3
115.61 331.25 3.56 c p3
116.82 333.44 3.56 c p3
118.02 334.07 3.56 c p3
119.22 332.50 3.56 c p3
120.43 333.44 3.56 c p3
121.63 333.44 3.56 c p3
122.83 333.13 3.56 c p3
124.04 334.69 3.56 c p3
125.24 336.88 3.56 c p3
126.44 333.75 3.56 c p3
127.65 332.81 3.56 c p3
128.85 334.69 3.56 c p3
130.05 331.87 3.56 c p3
131.26 335.63 3.56 c p3
132.46 334.69 3.56 c p3
133.67 333.44 3.56 c p3
134.87 334.38 3.56 c p3
136.07 333.13 3.56 c p3
137.28 334.69 3.56 c p3
138.48 332.50 3.56 c p3
139.68 331.56 3.56 c p3
140.89 332.50 3.56 c p3
142.09 335.32 3.56 c p3
143.29 334.38 3.56 c p3
144.50 332.50 3.56 c p3
145.70 334.07 3.56 c p3
146.90 335.63 3.56 c p3
148.11 335.01 3.56 c p3
149.31 334.69 3.56 c p3
150.52 335.95 3.56 c p3
151.72 333.44 3.56 c p3
152.92 334.69 3.56 c p3
154.13 334.69 3.56 c p3
155.33 335.95 3.56 c p3
156.53 334.38 3.56 c p3
157.74 335.63 3.56 c p3
158.94 333.44 3.56 c p3
160.14 335.32 3.56 c p3
161.35 334.38 3.56 c p3
162.55 336.26 3.56 c p3
163.75 336.88 3.56 c p3
164.96 334.69 3.56 c p3
166.16 334.38 3.56 c p3
167.37 335.32 3.56 c p3
168.57 334.38 3.56 c p3
169.77 336.26 3.56 c p3
170.98 333.13 3.56 c p3
172.18 334.07 3.56 c p3
173.38 335.95 3.56 c p3
174.59 335.63 3.56 c p3
175.79 334.69 3.56 c p3
176.99 336.26 3.56 c p3
178.20 334.38 3.56 c p3
179.40 332.19 3.56 c p3
180.60 335.32 3.56 c p3
181.81 337.20 3.56 c p3
183.01 333.75 3.56 c p3
184.22 335.63 3.56 c p3
185.42 336.26 3.56 c p3
186.62 335.63 3.56 c p3
187.83 335.95 3.56 c p3
189.03 336.57 3.56 c p3
190.23 335.01 3.56 c p3
191.44 336.88 3.56 c p3
192.64 336.26 3.56 c p3
193.84 337.82 3.56 c p3
195.05 337.51 3.56 c p3
196.25 338.14 3.56 c p3
197.45 334.07 3.56 c p3
198.66 335.01 3.56 c p3
199.86 336.57 3.56 c p3
201.06 334.69 3.56 c p3
202.27 337.20 3.56 c p3
203.47 336.26 3.56 c p3
204.68 334.07 3.56 c p3
205.88 335.32 3.56 c p3
207.08 336.57 3.56 c p3
208.29 336.26 3.56 c p3
209.49 335.95 3.56 c p3
210.69 331.56 3.56 c p3
211.90 332.81 3.56 c p3
213.10 336.88 3.56 c p3
214.30 335.63 3.56 c p3
215.51 337.20 3.56 c p3
216.71 332.19 3.56 c p3
217.91 337.82 3.56 c p3
219.12 333.13 3.56 c p3
220.32 335.01 3.56 c p3
221.53 338.45 3.56 c p3
222.73 334.07 3.56 c p3
223.93 330.31 3.56 c p3
225.14 330.31 3.56 c p3
226.34 332.19 3.56 c p3
227.54 328.43 3.56 c p3
228.75 328.74 3.56 c p3
229.95 329.68 3.56 c p3
231.15 335.32 3.56 c p3
232.36 330.31 3.56 c p3
233.56 327.80 3.56 c p3
234.76 323.73 3.56 c p3
235.97 330.31 3.56 c p3
237.17 329.37 3.56 c p3
238.38 327.80 3.56 c p3
239.58 324.99 3.56 c p3
240.78 332.81 3.56 c p3
241.99 330.31 3.56 c p3
243.19 321.23 3.56 c p3
244.39 330.31 3.56 c p3
245.60 294.30 3.56 c p3
246.80 318.72 3.56 c p3
248.00 329.68 3.56 c p3
249.21 300.87 3.56 c p3
250.41 291.48 3.56 c p3
251.61 311.83 3.56 c p3
252.82 275.82 3.56 c p3
254.02 310.89 3.56 c p3
255.22 263.30 3.56 c p3
256.43 306.82 3.56 c p3
257.63 268.93 3.56 c p3
258.84 288.04 3.56 c p3
260.04 260.48 3.56 c p3
261.24 260.79 3.56 c p3
262.45 273.00 3.56 c p3
263.65 302.44 3.56 c p3
264.85 268.62 3.56 c p3
266.06 248.89 3.56 c p3
267.26 289.91 3.56 c p3
268.46 252.34 3.56 c p3
269.67 247.64 3.56 c p3
270.87 239.19 3.56 c p3
272.07 258.91 3.56 c p3
273.28 260.79 3.56 c p3
274.48 243.88 3.56 c p3
275.69 247.33 3.56 c p3
276.89 251.08 3.56 c p3
278.09 269.56 3.56 c p3
279.30 239.19 3.56 c p3
280.50 263.92 3.56 c p3
281.70 242.32 3.56 c p3
282.91 237.93 3.56 c p3
284.11 256.72 3.56 c p3
285.31 234.80 3.56 c p3
286.52 231.67 3.56 c p3
287.72 235.43 3.56 c p3
288.92 231.04 3.56 c p3
290.13 229.48 3.56 c p3
291.33 231.98 3.56 c p3
292.54 228.23 3.56 c p3
293.74 225.72 3.56 c p3
294.94 225.72 3.56 c p3
296.15 227.91 3.56 c p3
297.35 230.10 3.56 c p3
298.55 224.16 3.56 c p3
299.76 226.97 3.56 c p3
300.96 225.72 3.56 c p3
302.16 227.91 3.56 c p3
303.37 228.54 3.56 c p3
304.57 226.66 3.56 c p3
305.77 224.78 3.56 c p3
306.98 223.53 3.56 c p3
308.18 227.29 3.56 c p3
309.39 223.22 3.56 c p3
310.59 225.41 3.56 c p3
311.79 224.47 3.56 c p3
313.00 221.34 3.56 c p3
314.20 222.28 3.56 c p3
315.40 222.59 3.56 c p3
316.61 221.02 3.56 c p3
317.81 222.59 3.56 c p3
319.01 222.59 3.56 c p3
320.22 223.84 3.56 c p3
321.42 221.96 3.56 c p3
322.62 220.71 3.56 c p3
323.83 224.16 3.56 c p3
325.03 224.78 3.56 c p3
326.23 221.02 3.56 c p3
327.44 222.59 3.56 c p3
328.64 222.59 3.56 c p3
329.85 223.53 3.56 c p3
331.05 221.02 3.56 c p3
332.25 219.77 3.56 c p3
333.46 221.65 3.56 c p3
334.66 220.08 3.56 c p3
335.86 221.96 3.56 c p3
337.07 219.77 3.56 c p3
338.27 222.90 3.56 c p3
339.47 221.34 3.56 c p3
340.68 219.77 3.56 c p3
341.88 221.34 3.56 c p3
343.08 221.96 3.56 c p3
344.29 220.40 3.56 c p3
345.49 220.08 3.56 c p3
346.70 220.40 3.56 c p3
347.90 219.77 3.56 c p3
349.10 220.71 3.56 c p3
350.31 220.08 3.56 c p3
351.51 220.08 3.56 c p3
352.71 222.59 3.56 c p3
353.92 221.34 3.56 c p3
355.12 219.77 3.56 c p3
356.32 221.02 3.56 c p3
357.53 220.08 3.56 c p3
358.73 219.77 3.56 c p3
359.93 219.77 3.56 c p3
361.14 219.46 3.56 c p3
362.34 219.46 3.56 c p3
363.55 219.77 3.56 c p3
364.75 219.14 3.56 c p3
365.95 219.46 3.56 c p3
367.16 219.14 3.56 c p3
368.36 220.08 3.56 c p3
369.56 219.77 3.56 c p3
370.77 219.46 3.56 c p3
371.97 219.77 3.56 c p3
373.17 219.14 3.56 c p3
374.38 219.46 3.56 c p3
375.58 219.46 3.56 c p3
376.78 219.46 3.56 c p3
377.99 219.14 3.56 c p3
379.19 219.14 3.56 c p3
380.40 219.14 3.56 c p3
381.60 219.46 3.56 c p3
382.80 219.14 3.56 c p3
384.01 220.40 3.56 c p3
385.21 220.40 3.56 c p3
386.41 219.14 3.56 c p3
387.62 219.46 3.56 c p3
388.82 218.83 3.56 c p3
390.02 219.14 3.56 c p3
391.23 218.83 3.56 c p3
392.43 219.14 3.56 c p3
393.63 219.14 3.56 c p3
394.84 219.14 3.56 c p3
396.04 219.14 3.56 c p3
397.24 219.14 3.56 c p3
398.45 219.14 3.56 c p3
399.65 220.40 3.56 c p3
400.86 218.83 3.56 c p3
402.06 219.14 3.56 c p3
403.26 219.14 3.56 c p3
404.47 219.77 3.56 c p3
405.67 219.46 3.56 c p3
406.87 219.77 3.56 c p3
408.08 219.14 3.56 c p3
409.28 219.14 3.56 c p3
410.48 219.14 3.56 c p3
411.69 219.46 3.56 c p3
412.89 219.77 3.56 c p3
414.09 219.14 3.56 c p3
415.30 219.14 3.56 c p3
416.50 219.14 3.56 c p3
417.71 218.83 3.56 c p3
418.91 218.83 3.56 c p3
420.11 219.14 3.56 c p3
421.32 219.14 3.56 c p3
422.52 218.83 3.56 c p3
423.72 219.46 3.56 c p3
424.93 219.14 3.56 c p3
426.13 219.14 3.56 c p3
427.33 218.83 3.56 c p3
428.54 218.83 3.56 c p3
429.74 218.83 3.56 c p3
430.94 219.14 3.56 c p3
432.15 219.77 3.56 c p3
433.35 219.14 3.56 c p3
434.56 218.83 3.56 c p3
435.76 219.46 3.56 c p3
436.96 219.46 3.56 c p3
438.17 219.46 3.56 c p3
439.37 218.83 3.56 c p3
440.57 218.83 3.56 c p3
441.78 219.14 3.56 c p3
442.98 218.83 3.56 c p3
444.18 219.14 3.56 c p3
0.00 0.00 467.72 396.85 cl
0.00 0.00 467.72 396.85 cl
0.00 0.00 467.72 396.85 cl
0.00 0.00 467.72 396.85 cl
0.00 0.00 467.72 396.85 cl
0.00 0.00 467.72 396.85 cl
0.00 0.00 467.72 396.85 cl
0.00 0.00 467.72 396.85 cl
0.00 0.00 467.72 396.85 cl
0.00 0.00 467.72 396.85 cl
0.00 0.00 467.72 396.85 cl
0.00 0.00 467.72 396.85 cl
0.00 0.00 467.72 396.85 cl
0.8000 0.8000 0.8000 srgb
2.13 setlinewidth
[] 0 setdash
0 setlinecap
1 setlinejoin
10.00 setmiterlimit
np
65.06 46.92 m
0 344.45 l
o
0.00 0.00 467.72 396.85 cl
0.00 0.00 467.72 396.85 cl
0.00 0.00 467.72 396.85 cl
/Font1 findfont 18 s
0.3020 0.3020 0.3020 srgb
60.13 56.11 (0.00) 1 0 t
60.13 134.40 (0.25) 1 0 t
60.13 212.68 (0.50) 1 0 t
60.13 290.97 (0.75) 1 0 t
60.13 369.25 (1.00) 1 0 t
0.00 0.00 467.72 396.85 cl
0.00 0.00 467.72 396.85 cl
0.2000 0.2000 0.2000 srgb
1.07 setlinewidth
[] 0 setdash
0 setlinecap
1 setlinejoin
10.00 setmiterlimit
np
62.32 62.58 m
2.74 0 l
o
np
62.32 140.86 m
2.74 0 l
o
np
62.32 219.14 m
2.74 0 l
o
np
62.32 297.43 m
2.74 0 l
o
np
62.32 375.71 m
2.74 0 l
o
0.00 0.00 467.72 396.85 cl
0.00 0.00 467.72 396.85 cl
0.00 0.00 467.72 396.85 cl
0.00 0.00 467.72 396.85 cl
0.00 0.00 467.72 396.85 cl
0.00 0.00 467.72 396.85 cl
0.00 0.00 467.72 396.85 cl
0.8000 0.8000 0.8000 srgb
2.13 setlinewidth
[] 0 setdash
0 setlinecap
1 setlinejoin
10.00 setmiterlimit
np
65.06 46.92 m
397.18 0 l
o
0.00 0.00 467.72 396.85 cl
0.00 0.00 467.72 396.85 cl
0.00 0.00 467.72 396.85 cl
0.2000 0.2000 0.2000 srgb
1.07 setlinewidth
[] 0 setdash
0 setlinecap
1 setlinejoin
10.00 setmiterlimit
np
83.12 44.18 m
0 2.74 l
o
np
203.47 44.18 m
0 2.74 l
o
np
323.83 44.18 m
0 2.74 l
o
np
444.18 44.18 m
0 2.74 l
o
0.00 0.00 467.72 396.85 cl
0.00 0.00 467.72 396.85 cl
/Font1 findfont 18 s
0.3020 0.3020 0.3020 srgb
83.12 29.06 (0) .5 0 t
203.47 29.06 (1) .5 0 t
323.83 29.06 (2) .5 0 t
444.18 29.06 (3) .5 0 t
0.00 0.00 467.72 396.85 cl
0.00 0.00 467.72 396.85 cl
0.00 0.00 467.72 396.85 cl
0.00 0.00 467.72 396.85 cl
0.00 0.00 467.72 396.85 cl
0.00 0.00 467.72 396.85 cl
/Font1 findfont 18 s
0 0 0 srgb
129.08 9.44 (Pref) 0 ta
-0.540 (erential Attachment Exponent) tb gr
0.00 0.00 467.72 396.85 cl
0.00 0.00 467.72 396.85 cl
/Font1 findfont 18 s
0 0 0 srgb
18.40 109.11 (Fisher Inf) 90 ta
-0.540 (or) tb
0.450 (mation Measure) tb gr
0.00 0.00 467.72 396.85 cl
0.00 0.00 467.72 396.85 cl
0.00 0.00 467.72 396.85 cl
0.00 0.00 467.72 396.85 cl
0.00 0.00 467.72 396.85 cl
0.00 0.00 467.72 396.85 cl
0.00 0.00 467.72 396.85 cl
0.00 0.00 467.72 396.85 cl
0.00 0.00 467.72 396.85 cl
0.00 0.00 467.72 396.85 cl
0.00 0.00 467.72 396.85 cl
0.00 0.00 467.72 396.85 cl
ep
%%Trailer
%%Pages: 1
%%EOF
