1000,0.072,0.87,0,0.002
1000,0.073,0.859,0.01,0.002
1000,0.074,0.857,0.02,0.002
1000,0.073,0.861,0.03,0.002
1000,0.074,0.85,0.04,0.002
1000,0.074,0.854,0.05,0.002
1000,0.073,0.855,0.06,0.002
1000,0.073,0.859,0.07,0.002
1000,0.074,0.855,0.08,0.002
1000,0.073,0.86,0.09,0.002
1000,0.075,0.861,0.1,0.002
1000,0.073,0.862,0.11,0.002
1000,0.073,0.86,0.12,0.002
1000,0.073,0.86,0.13,0.002
1000,0.073,0.86,0.14,0.002
1000,0.072,0.857,0.15,0.002
1000,0.072,0.868,0.16,0.002
1000,0.073,0.86,0.17,0.002
1000,0.072,0.865,0.18,0.002
1000,0.073,0.86,0.19,0.002
1000,0.073,0.863,0.2,0.002
1000,0.072,0.86,0.21,0.002
1000,0.072,0.868,0.22,0.002
1000,0.073,0.863,0.23,0.002
1000,0.072,0.862,0.24,0.002
1000,0.072,0.861,0.25,0.002
1000,0.072,0.861,0.26,0.002
1000,0.072,0.858,0.27,0.002
1000,0.072,0.865,0.28,0.002
1000,0.072,0.867,0.29,0.002
1000,0.073,0.862,0.3,0.002
1000,0.072,0.865,0.31,0.002
1000,0.071,0.865,0.32,0.002
1000,0.072,0.864,0.33,0.002
1000,0.07,0.869,0.34,0.002
1000,0.071,0.876,0.35,0.002
1000,0.071,0.866,0.36,0.002
1000,0.071,0.863,0.37,0.002
1000,0.07,0.869,0.38,0.002
1000,0.071,0.86,0.39,0.002
1000,0.071,0.872,0.4,0.002
1000,0.07,0.869,0.41,0.002
1000,0.071,0.865,0.42,0.002
1000,0.07,0.868,0.43,0.002
1000,0.07,0.864,0.44,0.002
1000,0.07,0.869,0.45,0.002
1000,0.07,0.862,0.46,0.002
1000,0.071,0.859,0.47,0.002
1000,0.071,0.862,0.48,0.002
1000,0.07,0.871,0.49,0.002
1000,0.07,0.868,0.5,0.002
1000,0.07,0.862,0.51,0.002
1000,0.07,0.867,0.52,0.002
1000,0.069,0.872,0.53,0.002
1000,0.069,0.87,0.54,0.002
1000,0.068,0.869,0.55,0.002
1000,0.069,0.873,0.56,0.002
1000,0.069,0.865,0.57,0.002
1000,0.07,0.869,0.58,0.002
1000,0.069,0.869,0.59,0.002
1000,0.069,0.873,0.6,0.002
1000,0.069,0.868,0.61,0.002
1000,0.068,0.872,0.62,0.002
1000,0.068,0.865,0.63,0.002
1000,0.068,0.871,0.64,0.002
1000,0.069,0.868,0.65,0.002
1000,0.068,0.874,0.66,0.002
1000,0.067,0.876,0.67,0.002
1000,0.068,0.869,0.68,0.002
1000,0.068,0.868,0.69,0.002
1000,0.068,0.871,0.7,0.002
1000,0.067,0.868,0.71,0.002
1000,0.067,0.874,0.72,0.002
1000,0.068,0.864,0.73,0.002
1000,0.068,0.867,0.74,0.002
1000,0.067,0.873,0.75,0.002
1000,0.067,0.872,0.76,0.002
1000,0.067,0.869,0.77,0.002
1000,0.067,0.874,0.78,0.002
1000,0.065,0.868,0.79,0.002
1000,0.067,0.861,0.8,0.002
1000,0.066,0.871,0.81,0.002
1000,0.067,0.877,0.82,0.002
1000,0.065,0.866,0.83,0.002
1000,0.066,0.872,0.84,0.002
1000,0.066,0.874,0.85,0.002
1000,0.066,0.872,0.86,0.002
1000,0.066,0.873,0.87,0.002
1000,0.065,0.875,0.88,0.002
1000,0.066,0.87,0.89,0.002
1000,0.065,0.876,0.9,0.002
1000,0.066,0.874,0.91,0.002
1000,0.064,0.879,0.92,0.002
1000,0.063,0.878,0.93,0.002
1000,0.066,0.88,0.94,0.002
1000,0.064,0.867,0.95,0.002
1000,0.064,0.87,0.96,0.002
1000,0.062,0.875,0.97,0.002
1000,0.063,0.869,0.98,0.002
1000,0.063,0.877,0.99,0.002
1000,0.063,0.874,1,0.002
1000,0.063,0.867,1.01,0.002
1000,0.064,0.871,1.02,0.002
1000,0.063,0.875,1.03,0.002
1000,0.062,0.874,1.04,0.002
1000,0.063,0.873,1.05,0.002
1000,0.061,0.859,1.06,0.002
1000,0.06,0.863,1.07,0.002
1000,0.061,0.876,1.08,0.002
1000,0.061,0.872,1.09,0.002
1000,0.062,0.877,1.1,0.002
1000,0.06,0.861,1.11,0.002
1000,0.061,0.879,1.12,0.002
1000,0.059,0.864,1.13,0.002
1000,0.059,0.87,1.14,0.002
1000,0.058,0.881,1.15,0.002
1000,0.058,0.867,1.16,0.002
1000,0.057,0.855,1.17,0.002
1000,0.058,0.855,1.18,0.002
1000,0.056,0.861,1.19,0.002
1000,0.056,0.849,1.2,0.002
1000,0.056,0.85,1.21,0.002
1000,0.053,0.853,1.22,0.002
1000,0.056,0.871,1.23,0.002
1000,0.058,0.855,1.24,0.002
1000,0.055,0.847,1.25,0.002
1000,0.05,0.834,1.26,0.002
1000,0.053,0.855,1.27,0.002
1000,0.052,0.852,1.28,0.002
1000,0.047,0.847,1.29,0.002
1000,0.051,0.838,1.3,0.002
1000,0.053,0.863,1.31,0.002
1000,0.051,0.855,1.32,0.002
1000,0.047,0.826,1.33,0.002
1000,0.053,0.855,1.34,0.002
1000,0.04,0.74,1.35,0.002
1000,0.047,0.818,1.36,0.002
1000,0.05,0.853,1.37,0.002
1000,0.041,0.761,1.38,0.002
1000,0.034,0.731,1.39,0.002
1000,0.043,0.796,1.4,0.002
1000,0.029,0.681,1.41,0.002
1000,0.039,0.793,1.42,0.002
1000,0.023,0.641,1.43,0.002
1000,0.038,0.78,1.44,0.002
1000,0.025,0.659,1.45,0.002
1000,0.033,0.72,1.46,0.002
1000,0.022,0.632,1.47,0.002
1000,0.022,0.633,1.48,0.002
1000,0.025,0.672,1.49,0.002
1000,0.029,0.766,1.5,0.002
1000,0.025,0.658,1.51,0.002
1000,0.016,0.595,1.52,0.002
1000,0.027,0.726,1.53,0.002
1000,0.018,0.606,1.54,0.002
1000,0.015,0.591,1.55,0.002
1000,0.012,0.564,1.56,0.002
1000,0.019,0.627,1.57,0.002
1000,0.019,0.633,1.58,0.002
1000,0.014,0.579,1.59,0.002
1000,0.014,0.59,1.6,0.002
1000,0.015,0.602,1.61,0.002
1000,0.021,0.661,1.62,0.002
1000,0.01,0.564,1.63,0.002
1000,0.018,0.643,1.64,0.002
1000,0.011,0.574,1.65,0.002
1000,0.01,0.56,1.66,0.002
1000,0.015,0.62,1.67,0.002
1000,0.01,0.55,1.68,0.002
1000,0.008,0.54,1.69,0.002
1000,0.009,0.552,1.7,0.002
1000,0.007,0.538,1.71,0.002
1000,0.007,0.533,1.72,0.002
1000,0.008,0.541,1.73,0.002
1000,0.006,0.529,1.74,0.002
1000,0.005,0.521,1.75,0.002
1000,0.005,0.521,1.76,0.002
1000,0.005,0.528,1.77,0.002
1000,0.006,0.535,1.78,0.002
1000,0.004,0.516,1.79,0.002
1000,0.005,0.525,1.8,0.002
1000,0.005,0.521,1.81,0.002
1000,0.006,0.528,1.82,0.002
1000,0.006,0.53,1.83,0.002
1000,0.006,0.524,1.84,0.002
1000,0.004,0.518,1.85,0.002
1000,0.004,0.514,1.86,0.002
1000,0.005,0.526,1.87,0.002
1000,0.003,0.513,1.88,0.002
1000,0.004,0.52,1.89,0.002
1000,0.004,0.517,1.9,0.002
1000,0.003,0.507,1.91,0.002
1000,0.003,0.51,1.92,0.002
1000,0.003,0.511,1.93,0.002
1000,0.002,0.506,1.94,0.002
1000,0.003,0.511,1.95,0.002
1000,0.003,0.511,1.96,0.002
1000,0.004,0.515,1.97,0.002
1000,0.003,0.509,1.98,0.002
1000,0.002,0.505,1.99,0.002
1000,0.004,0.516,2,0.002
1000,0.004,0.518,2.01,0.002
1000,0.002,0.506,2.02,0.002
1000,0.003,0.511,2.03,0.002
1000,0.003,0.511,2.04,0.002
1000,0.004,0.514,2.05,0.002
1000,0.002,0.506,2.06,0.002
1000,0.002,0.502,2.07,0.002
1000,0.002,0.508,2.08,0.002
1000,0.002,0.503,2.09,0.002
1000,0.003,0.509,2.1,0.002
1000,0.001,0.502,2.11,0.002
1000,0.003,0.512,2.12,0.002
1000,0.003,0.507,2.13,0.002
1000,0.002,0.502,2.14,0.002
1000,0.003,0.507,2.15,0.002
1000,0.003,0.509,2.16,0.002
1000,0.002,0.504,2.17,0.002
1000,0.002,0.503,2.18,0.002
1000,0.002,0.504,2.19,0.002
1000,0.001,0.502,2.2,0.002
1000,0.002,0.505,2.21,0.002
1000,0.002,0.503,2.22,0.002
1000,0.002,0.503,2.23,0.002
1000,0.003,0.511,2.24,0.002
1000,0.003,0.507,2.25,0.002
1000,0.002,0.502,2.26,0.002
1000,0.003,0.506,2.27,0.002
1000,0.002,0.503,2.28,0.002
1000,0.002,0.502,2.29,0.002
1000,0.002,0.502,2.3,0.002
1000,0.001,0.501,2.31,0.002
1000,0.002,0.501,2.32,0.002
1000,0.001,0.502,2.33,0.002
1000,0.001,0.5,2.34,0.002
1000,0.001,0.501,2.35,0.002
1000,0.001,0.5,2.36,0.002
1000,0.002,0.503,2.37,0.002
1000,0.002,0.502,2.38,0.002
1000,0.001,0.501,2.39,0.002
1000,0.002,0.502,2.4,0.002
1000,0.001,0.5,2.41,0.002
1000,0.002,0.501,2.42,0.002
1000,0.002,0.501,2.43,0.002
1000,0.002,0.501,2.44,0.002
1000,0.001,0.5,2.45,0.002
1000,0.001,0.5,2.46,0.002
1000,0.001,0.5,2.47,0.002
1000,0.002,0.501,2.48,0.002
1000,0.001,0.5,2.49,0.002
1000,0.002,0.504,2.5,0.002
1000,0.002,0.504,2.51,0.002
1000,0.001,0.5,2.52,0.002
1000,0.001,0.501,2.53,0.002
1000,0.001,0.499,2.54,0.002
1000,0.001,0.5,2.55,0.002
1000,0.002,0.499,2.56,0.002
1000,0.001,0.5,2.57,0.002
1000,0.001,0.5,2.58,0.002
1000,0.001,0.5,2.59,0.002
1000,0.001,0.5,2.6,0.002
1000,0.001,0.5,2.61,0.002
1000,0.001,0.5,2.62,0.002
1000,0.002,0.504,2.63,0.002
1000,0.001,0.499,2.64,0.002
1000,0.001,0.5,2.65,0.002
1000,0.001,0.5,2.66,0.002
1000,0.002,0.502,2.67,0.002
1000,0.002,0.501,2.68,0.002
1000,0.002,0.502,2.69,0.002
1000,0.001,0.5,2.7,0.002
1000,0.001,0.5,2.71,0.002
1000,0.001,0.5,2.72,0.002
1000,0.001,0.501,2.73,0.002
1000,0.002,0.502,2.74,0.002
1000,0.001,0.5,2.75,0.002
1000,0.002,0.5,2.76,0.002
1000,0.001,0.5,2.77,0.002
1000,0.001,0.499,2.78,0.002
1000,0.001,0.499,2.79,0.002
1000,0.001,0.5,2.8,0.002
1000,0.001,0.5,2.81,0.002
1000,0.001,0.499,2.82,0.002
1000,0.002,0.501,2.83,0.002
1000,0.001,0.5,2.84,0.002
1000,0.001,0.5,2.85,0.002
1000,0.001,0.499,2.86,0.002
1000,0.001,0.499,2.87,0.002
1000,0.001,0.499,2.88,0.002
1000,0.001,0.5,2.89,0.002
1000,0.002,0.502,2.9,0.002
1000,0.001,0.5,2.91,0.002
1000,0.001,0.499,2.92,0.002
1000,0.001,0.501,2.93,0.002
1000,0.001,0.501,2.94,0.002
1000,0.001,0.501,2.95,0.002
1000,0.001,0.499,2.96,0.002
1000,0.001,0.499,2.97,0.002
1000,0.001,0.5,2.98,0.002
1000,0.001,0.499,2.99,0.002
1000,0.001,0.5,3,0.002
