Fitness,1000,0.091,0.994,0.002758759
Fitness,1000,0.094,0.994,0.002718719
Fitness,1000,0.089,0.994,0.002838839
Fitness,1000,0.091,0.947,0.002772773
Fitness,1000,0.096,0.992,0.002772773
Fitness,1000,0.092,0.99,0.002652653
Fitness,1000,0.091,0.994,0.002748749
Fitness,1000,0.093,0.993,0.002720721
Fitness,1000,0.087,0.993,0.002876877
Fitness,1000,0.093,0.99,0.002818819
Fitness,1000,0.098,0.967,0.002836837
Fitness,1000,0.084,0.99,0.002830831
Fitness,1000,0.09,0.978,0.002778779
Fitness,1000,0.094,0.992,0.002718719
Fitness,1000,0.095,0.994,0.002796797
Fitness,1000,0.096,0.994,0.002756757
Fitness,1000,0.094,0.982,0.002792793
Fitness,1000,0.084,0.792,0.002882883
Fitness,1000,0.097,0.95,0.002850851
Fitness,1000,0.071,0.996,0.002916917
Fitness,1000,0.092,0.985,0.002788789
Fitness,1000,0.096,0.963,0.002800801
Fitness,1000,0.092,0.989,0.002762763
Fitness,1000,0.092,0.992,0.002696697
Fitness,1000,0.082,0.996,0.002838839
Fitness,1000,0.09,0.975,0.002706707
Fitness,1000,0.09,0.977,0.002730731
Fitness,1000,0.095,0.99,0.002752753
Fitness,1000,0.093,0.996,0.002792793
Fitness,1000,0.097,0.993,0.002812813
